^C:\USERS\UNIVERSITY\ONEDRIVE\UNIVERSITY\Y2\S1\COSC1187 - INTERACTIVE 3D GRAPHICS AND ANIMATION\ASSIGNMENTS\A3\A3\SOURCES\ANIMATION.C|C:\USERS\UNIVERSITY\ONEDRIVE\UNIVERSITY\Y2\S1\COSC1187 - INTERACTIVE 3D GRAPHICS AND ANIMATION\ASSIGNMENTS\A3\A3\SOURCES\CAMERA.C|C:\USERS\UNIVERSITY\ONEDRIVE\UNIVERSITY\Y2\S1\COSC1187 - INTERACTIVE 3D GRAPHICS AND ANIMATION\ASSIGNMENTS\A3\A3\SOURCES\CARS.C|C:\USERS\UNIVERSITY\ONEDRIVE\UNIVERSITY\Y2\S1\COSC1187 - INTERACTIVE 3D GRAPHICS AND ANIMATION\ASSIGNMENTS\A3\A3\SOURCES\CONTROLS.C|C:\USERS\UNIVERSITY\ONEDRIVE\UNIVERSITY\Y2\S1\COSC1187 - INTERACTIVE 3D GRAPHICS AND ANIMATION\ASSIGNMENTS\A3\A3\SOURCES\GL.C|C:\USERS\UNIVERSITY\ONEDRIVE\UNIVERSITY\Y2\S1\COSC1187 - INTERACTIVE 3D GRAPHICS AND ANIMATION\ASSIGNMENTS\A3\A3\SOURCES\GLOBALS.C|C:\USERS\UNIVERSITY\ONEDRIVE\UNIVERSITY\Y2\S1\COSC1187 - INTERACTIVE 3D GRAPHICS AND ANIMATION\ASSIGNMENTS\A3\A3\SOURCES\LIGHT.C|C:\USERS\UNIVERSITY\ONEDRIVE\UNIVERSITY\Y2\S1\COSC1187 - INTERACTIVE 3D GRAPHICS AND ANIMATION\ASSIGNMENTS\A3\A3\SOURCES\LOGS.C|C:\USERS\UNIVERSITY\ONEDRIVE\UNIVERSITY\Y2\S1\COSC1187 - INTERACTIVE 3D GRAPHICS AND ANIMATION\ASSIGNMENTS\A3\A3\SOURCES\MAIN.C|C:\USERS\UNIVERSITY\ONEDRIVE\UNIVERSITY\Y2\S1\COSC1187 - INTERACTIVE 3D GRAPHICS AND ANIMATION\ASSIGNMENTS\A3\A3\SOURCES\MATERIAL.C|C:\USERS\UNIVERSITY\ONEDRIVE\UNIVERSITY\Y2\S1\COSC1187 - INTERACTIVE 3D GRAPHICS AND ANIMATION\ASSIGNMENTS\A3\A3\SOURCES\MESH.C|C:\USERS\UNIVERSITY\ONEDRIVE\UNIVERSITY\Y2\S1\COSC1187 - INTERACTIVE 3D GRAPHICS AND ANIMATION\ASSIGNMENTS\A3\A3\SOURCES\PARABOLA.C|C:\USERS\UNIVERSITY\ONEDRIVE\UNIVERSITY\Y2\S1\COSC1187 - INTERACTIVE 3D GRAPHICS AND ANIMATION\ASSIGNMENTS\A3\A3\SOURCES\PLAYER.C|C:\USERS\UNIVERSITY\ONEDRIVE\UNIVERSITY\Y2\S1\COSC1187 - INTERACTIVE 3D GRAPHICS AND ANIMATION\ASSIGNMENTS\A3\A3\SOURCES\RIVER.C|C:\USERS\UNIVERSITY\ONEDRIVE\UNIVERSITY\Y2\S1\COSC1187 - INTERACTIVE 3D GRAPHICS AND ANIMATION\ASSIGNMENTS\A3\A3\SOURCES\ROAD.C|C:\USERS\UNIVERSITY\ONEDRIVE\UNIVERSITY\Y2\S1\COSC1187 - INTERACTIVE 3D GRAPHICS AND ANIMATION\ASSIGNMENTS\A3\A3\SOURCES\TERRAIN.C|C:\USERS\UNIVERSITY\ONEDRIVE\UNIVERSITY\Y2\S1\COSC1187 - INTERACTIVE 3D GRAPHICS AND ANIMATION\ASSIGNMENTS\A3\A3\SOURCES\UTILS.C
C:\USERS\UNIVERSITY\ONEDRIVE\UNIVERSITY\Y2\S1\COSC1187 - INTERACTIVE 3D GRAPHICS AND ANIMATION\ASSIGNMENTS\A3\A3\DEBUG\VC141.PDB
C:\USERS\UNIVERSITY\ONEDRIVE\UNIVERSITY\Y2\S1\COSC1187 - INTERACTIVE 3D GRAPHICS AND ANIMATION\ASSIGNMENTS\A3\A3\DEBUG\VC141.IDB
C:\USERS\UNIVERSITY\ONEDRIVE\UNIVERSITY\Y2\S1\COSC1187 - INTERACTIVE 3D GRAPHICS AND ANIMATION\ASSIGNMENTS\A3\A3\DEBUG\ANIMATION.OBJ
C:\USERS\UNIVERSITY\ONEDRIVE\UNIVERSITY\Y2\S1\COSC1187 - INTERACTIVE 3D GRAPHICS AND ANIMATION\ASSIGNMENTS\A3\A3\DEBUG\CAMERA.OBJ
C:\USERS\UNIVERSITY\ONEDRIVE\UNIVERSITY\Y2\S1\COSC1187 - INTERACTIVE 3D GRAPHICS AND ANIMATION\ASSIGNMENTS\A3\A3\DEBUG\CONTROLS.OBJ
C:\USERS\UNIVERSITY\ONEDRIVE\UNIVERSITY\Y2\S1\COSC1187 - INTERACTIVE 3D GRAPHICS AND ANIMATION\ASSIGNMENTS\A3\A3\DEBUG\GL.OBJ
C:\USERS\UNIVERSITY\ONEDRIVE\UNIVERSITY\Y2\S1\COSC1187 - INTERACTIVE 3D GRAPHICS AND ANIMATION\ASSIGNMENTS\A3\A3\DEBUG\GLOBALS.OBJ
C:\USERS\UNIVERSITY\ONEDRIVE\UNIVERSITY\Y2\S1\COSC1187 - INTERACTIVE 3D GRAPHICS AND ANIMATION\ASSIGNMENTS\A3\A3\DEBUG\LIGHT.OBJ
C:\USERS\UNIVERSITY\ONEDRIVE\UNIVERSITY\Y2\S1\COSC1187 - INTERACTIVE 3D GRAPHICS AND ANIMATION\ASSIGNMENTS\A3\A3\DEBUG\MAIN.OBJ
C:\USERS\UNIVERSITY\ONEDRIVE\UNIVERSITY\Y2\S1\COSC1187 - INTERACTIVE 3D GRAPHICS AND ANIMATION\ASSIGNMENTS\A3\A3\DEBUG\MATERIAL.OBJ
C:\USERS\UNIVERSITY\ONEDRIVE\UNIVERSITY\Y2\S1\COSC1187 - INTERACTIVE 3D GRAPHICS AND ANIMATION\ASSIGNMENTS\A3\A3\DEBUG\MESH.OBJ
C:\USERS\UNIVERSITY\ONEDRIVE\UNIVERSITY\Y2\S1\COSC1187 - INTERACTIVE 3D GRAPHICS AND ANIMATION\ASSIGNMENTS\A3\A3\DEBUG\PARABOLA.OBJ
C:\USERS\UNIVERSITY\ONEDRIVE\UNIVERSITY\Y2\S1\COSC1187 - INTERACTIVE 3D GRAPHICS AND ANIMATION\ASSIGNMENTS\A3\A3\DEBUG\PLAYER.OBJ
C:\USERS\UNIVERSITY\ONEDRIVE\UNIVERSITY\Y2\S1\COSC1187 - INTERACTIVE 3D GRAPHICS AND ANIMATION\ASSIGNMENTS\A3\A3\DEBUG\LOGS.OBJ
C:\USERS\UNIVERSITY\ONEDRIVE\UNIVERSITY\Y2\S1\COSC1187 - INTERACTIVE 3D GRAPHICS AND ANIMATION\ASSIGNMENTS\A3\A3\DEBUG\CARS.OBJ
C:\USERS\UNIVERSITY\ONEDRIVE\UNIVERSITY\Y2\S1\COSC1187 - INTERACTIVE 3D GRAPHICS AND ANIMATION\ASSIGNMENTS\A3\A3\DEBUG\RIVER.OBJ
C:\USERS\UNIVERSITY\ONEDRIVE\UNIVERSITY\Y2\S1\COSC1187 - INTERACTIVE 3D GRAPHICS AND ANIMATION\ASSIGNMENTS\A3\A3\DEBUG\ROAD.OBJ
C:\USERS\UNIVERSITY\ONEDRIVE\UNIVERSITY\Y2\S1\COSC1187 - INTERACTIVE 3D GRAPHICS AND ANIMATION\ASSIGNMENTS\A3\A3\DEBUG\TERRAIN.OBJ
C:\USERS\UNIVERSITY\ONEDRIVE\UNIVERSITY\Y2\S1\COSC1187 - INTERACTIVE 3D GRAPHICS AND ANIMATION\ASSIGNMENTS\A3\A3\DEBUG\UTILS.OBJ
^C:\USERS\UNIVERSITY\ONEDRIVE\UNIVERSITY\Y2\S1\COSC1187 - INTERACTIVE 3D GRAPHICS AND ANIMATION\ASSIGNMENTS\A3\A3\SOURCES\ANIMATION.C
C:\USERS\UNIVERSITY\ONEDRIVE\UNIVERSITY\Y2\S1\COSC1187 - INTERACTIVE 3D GRAPHICS AND ANIMATION\ASSIGNMENTS\A3\A3\DEBUG\VC141.PDB
^C:\USERS\UNIVERSITY\ONEDRIVE\UNIVERSITY\Y2\S1\COSC1187 - INTERACTIVE 3D GRAPHICS AND ANIMATION\ASSIGNMENTS\A3\A3\SOURCES\CAMERA.C
C:\USERS\UNIVERSITY\ONEDRIVE\UNIVERSITY\Y2\S1\COSC1187 - INTERACTIVE 3D GRAPHICS AND ANIMATION\ASSIGNMENTS\A3\A3\DEBUG\VC141.PDB
^C:\USERS\UNIVERSITY\ONEDRIVE\UNIVERSITY\Y2\S1\COSC1187 - INTERACTIVE 3D GRAPHICS AND ANIMATION\ASSIGNMENTS\A3\A3\SOURCES\CONTROLS.C
C:\USERS\UNIVERSITY\ONEDRIVE\UNIVERSITY\Y2\S1\COSC1187 - INTERACTIVE 3D GRAPHICS AND ANIMATION\ASSIGNMENTS\A3\A3\DEBUG\VC141.PDB
^C:\USERS\UNIVERSITY\ONEDRIVE\UNIVERSITY\Y2\S1\COSC1187 - INTERACTIVE 3D GRAPHICS AND ANIMATION\ASSIGNMENTS\A3\A3\SOURCES\GL.C
C:\USERS\UNIVERSITY\ONEDRIVE\UNIVERSITY\Y2\S1\COSC1187 - INTERACTIVE 3D GRAPHICS AND ANIMATION\ASSIGNMENTS\A3\A3\DEBUG\VC141.PDB
^C:\USERS\UNIVERSITY\ONEDRIVE\UNIVERSITY\Y2\S1\COSC1187 - INTERACTIVE 3D GRAPHICS AND ANIMATION\ASSIGNMENTS\A3\A3\SOURCES\GLOBALS.C
C:\USERS\UNIVERSITY\ONEDRIVE\UNIVERSITY\Y2\S1\COSC1187 - INTERACTIVE 3D GRAPHICS AND ANIMATION\ASSIGNMENTS\A3\A3\DEBUG\VC141.PDB
C:\USERS\UNIVERSITY\ONEDRIVE\UNIVERSITY\Y2\S1\COSC1187 - INTERACTIVE 3D GRAPHICS AND ANIMATION\ASSIGNMENTS\A3\A3\DEBUG\VC141.IDB
C:\USERS\UNIVERSITY\ONEDRIVE\UNIVERSITY\Y2\S1\COSC1187 - INTERACTIVE 3D GRAPHICS AND ANIMATION\ASSIGNMENTS\A3\A3\DEBUG\GLOBALS.OBJ
^C:\USERS\UNIVERSITY\ONEDRIVE\UNIVERSITY\Y2\S1\COSC1187 - INTERACTIVE 3D GRAPHICS AND ANIMATION\ASSIGNMENTS\A3\A3\SOURCES\LIGHT.C
C:\USERS\UNIVERSITY\ONEDRIVE\UNIVERSITY\Y2\S1\COSC1187 - INTERACTIVE 3D GRAPHICS AND ANIMATION\ASSIGNMENTS\A3\A3\DEBUG\VC141.PDB
^C:\USERS\UNIVERSITY\ONEDRIVE\UNIVERSITY\Y2\S1\COSC1187 - INTERACTIVE 3D GRAPHICS AND ANIMATION\ASSIGNMENTS\A3\A3\SOURCES\MAIN.C
C:\USERS\UNIVERSITY\ONEDRIVE\UNIVERSITY\Y2\S1\COSC1187 - INTERACTIVE 3D GRAPHICS AND ANIMATION\ASSIGNMENTS\A3\A3\DEBUG\VC141.PDB
C:\USERS\UNIVERSITY\ONEDRIVE\UNIVERSITY\Y2\S1\COSC1187 - INTERACTIVE 3D GRAPHICS AND ANIMATION\ASSIGNMENTS\A3\A3\DEBUG\VC141.IDB
C:\USERS\UNIVERSITY\ONEDRIVE\UNIVERSITY\Y2\S1\COSC1187 - INTERACTIVE 3D GRAPHICS AND ANIMATION\ASSIGNMENTS\A3\A3\DEBUG\MAIN.OBJ
^C:\USERS\UNIVERSITY\ONEDRIVE\UNIVERSITY\Y2\S1\COSC1187 - INTERACTIVE 3D GRAPHICS AND ANIMATION\ASSIGNMENTS\A3\A3\SOURCES\MATERIAL.C
C:\USERS\UNIVERSITY\ONEDRIVE\UNIVERSITY\Y2\S1\COSC1187 - INTERACTIVE 3D GRAPHICS AND ANIMATION\ASSIGNMENTS\A3\A3\DEBUG\VC141.PDB
^C:\USERS\UNIVERSITY\ONEDRIVE\UNIVERSITY\Y2\S1\COSC1187 - INTERACTIVE 3D GRAPHICS AND ANIMATION\ASSIGNMENTS\A3\A3\SOURCES\MESH.C
C:\USERS\UNIVERSITY\ONEDRIVE\UNIVERSITY\Y2\S1\COSC1187 - INTERACTIVE 3D GRAPHICS AND ANIMATION\ASSIGNMENTS\A3\A3\DEBUG\VC141.PDB
^C:\USERS\UNIVERSITY\ONEDRIVE\UNIVERSITY\Y2\S1\COSC1187 - INTERACTIVE 3D GRAPHICS AND ANIMATION\ASSIGNMENTS\A3\A3\SOURCES\PARABOLA.C
C:\USERS\UNIVERSITY\ONEDRIVE\UNIVERSITY\Y2\S1\COSC1187 - INTERACTIVE 3D GRAPHICS AND ANIMATION\ASSIGNMENTS\A3\A3\DEBUG\VC141.PDB
^C:\USERS\UNIVERSITY\ONEDRIVE\UNIVERSITY\Y2\S1\COSC1187 - INTERACTIVE 3D GRAPHICS AND ANIMATION\ASSIGNMENTS\A3\A3\SOURCES\PLAYER.C
C:\USERS\UNIVERSITY\ONEDRIVE\UNIVERSITY\Y2\S1\COSC1187 - INTERACTIVE 3D GRAPHICS AND ANIMATION\ASSIGNMENTS\A3\A3\DEBUG\VC141.PDB
C:\USERS\UNIVERSITY\ONEDRIVE\UNIVERSITY\Y2\S1\COSC1187 - INTERACTIVE 3D GRAPHICS AND ANIMATION\ASSIGNMENTS\A3\A3\DEBUG\VC141.IDB
C:\USERS\UNIVERSITY\ONEDRIVE\UNIVERSITY\Y2\S1\COSC1187 - INTERACTIVE 3D GRAPHICS AND ANIMATION\ASSIGNMENTS\A3\A3\DEBUG\PLAYER.OBJ
^C:\USERS\UNIVERSITY\ONEDRIVE\UNIVERSITY\Y2\S1\COSC1187 - INTERACTIVE 3D GRAPHICS AND ANIMATION\ASSIGNMENTS\A3\A3\SOURCES\LOGS.C
C:\USERS\UNIVERSITY\ONEDRIVE\UNIVERSITY\Y2\S1\COSC1187 - INTERACTIVE 3D GRAPHICS AND ANIMATION\ASSIGNMENTS\A3\A3\DEBUG\VC141.PDB
^C:\USERS\UNIVERSITY\ONEDRIVE\UNIVERSITY\Y2\S1\COSC1187 - INTERACTIVE 3D GRAPHICS AND ANIMATION\ASSIGNMENTS\A3\A3\SOURCES\CARS.C
C:\USERS\UNIVERSITY\ONEDRIVE\UNIVERSITY\Y2\S1\COSC1187 - INTERACTIVE 3D GRAPHICS AND ANIMATION\ASSIGNMENTS\A3\A3\DEBUG\VC141.PDB
^C:\USERS\UNIVERSITY\ONEDRIVE\UNIVERSITY\Y2\S1\COSC1187 - INTERACTIVE 3D GRAPHICS AND ANIMATION\ASSIGNMENTS\A3\A3\SOURCES\RIVER.C
C:\USERS\UNIVERSITY\ONEDRIVE\UNIVERSITY\Y2\S1\COSC1187 - INTERACTIVE 3D GRAPHICS AND ANIMATION\ASSIGNMENTS\A3\A3\DEBUG\VC141.PDB
^C:\USERS\UNIVERSITY\ONEDRIVE\UNIVERSITY\Y2\S1\COSC1187 - INTERACTIVE 3D GRAPHICS AND ANIMATION\ASSIGNMENTS\A3\A3\SOURCES\ROAD.C
C:\USERS\UNIVERSITY\ONEDRIVE\UNIVERSITY\Y2\S1\COSC1187 - INTERACTIVE 3D GRAPHICS AND ANIMATION\ASSIGNMENTS\A3\A3\DEBUG\VC141.PDB
^C:\USERS\UNIVERSITY\ONEDRIVE\UNIVERSITY\Y2\S1\COSC1187 - INTERACTIVE 3D GRAPHICS AND ANIMATION\ASSIGNMENTS\A3\A3\SOURCES\TERRAIN.C
C:\USERS\UNIVERSITY\ONEDRIVE\UNIVERSITY\Y2\S1\COSC1187 - INTERACTIVE 3D GRAPHICS AND ANIMATION\ASSIGNMENTS\A3\A3\DEBUG\VC141.PDB
^C:\USERS\UNIVERSITY\ONEDRIVE\UNIVERSITY\Y2\S1\COSC1187 - INTERACTIVE 3D GRAPHICS AND ANIMATION\ASSIGNMENTS\A3\A3\SOURCES\UTILS.C
C:\USERS\UNIVERSITY\ONEDRIVE\UNIVERSITY\Y2\S1\COSC1187 - INTERACTIVE 3D GRAPHICS AND ANIMATION\ASSIGNMENTS\A3\A3\DEBUG\VC141.PDB
^C:\USERS\UNIVERSITY\ONEDRIVE\UNIVERSITY\Y2\S1\COSC1187 - INTERACTIVE 3D GRAPHICS AND ANIMATION\ASSIGNMENTS\A3\A3\SOURCES\MAIN.C|C:\USERS\UNIVERSITY\ONEDRIVE\UNIVERSITY\Y2\S1\COSC1187 - INTERACTIVE 3D GRAPHICS AND ANIMATION\ASSIGNMENTS\A3\A3\SOURCES\PLAYER.C
C:\USERS\UNIVERSITY\ONEDRIVE\UNIVERSITY\Y2\S1\COSC1187 - INTERACTIVE 3D GRAPHICS AND ANIMATION\ASSIGNMENTS\A3\A3\DEBUG\VC141.PDB
C:\USERS\UNIVERSITY\ONEDRIVE\UNIVERSITY\Y2\S1\COSC1187 - INTERACTIVE 3D GRAPHICS AND ANIMATION\ASSIGNMENTS\A3\A3\DEBUG\VC141.IDB
C:\USERS\UNIVERSITY\ONEDRIVE\UNIVERSITY\Y2\S1\COSC1187 - INTERACTIVE 3D GRAPHICS AND ANIMATION\ASSIGNMENTS\A3\A3\DEBUG\MAIN.OBJ
C:\USERS\UNIVERSITY\ONEDRIVE\UNIVERSITY\Y2\S1\COSC1187 - INTERACTIVE 3D GRAPHICS AND ANIMATION\ASSIGNMENTS\A3\A3\DEBUG\PLAYER.OBJ
^C:\USERS\UNIVERSITY\ONEDRIVE\UNIVERSITY\Y2\S1\COSC1187 - INTERACTIVE 3D GRAPHICS AND ANIMATION\ASSIGNMENTS\A3\A3\SOURCES\CAMERA.C|C:\USERS\UNIVERSITY\ONEDRIVE\UNIVERSITY\Y2\S1\COSC1187 - INTERACTIVE 3D GRAPHICS AND ANIMATION\ASSIGNMENTS\A3\A3\SOURCES\GLOBALS.C|C:\USERS\UNIVERSITY\ONEDRIVE\UNIVERSITY\Y2\S1\COSC1187 - INTERACTIVE 3D GRAPHICS AND ANIMATION\ASSIGNMENTS\A3\A3\SOURCES\MAIN.C|C:\USERS\UNIVERSITY\ONEDRIVE\UNIVERSITY\Y2\S1\COSC1187 - INTERACTIVE 3D GRAPHICS AND ANIMATION\ASSIGNMENTS\A3\A3\SOURCES\PARABOLA.C|C:\USERS\UNIVERSITY\ONEDRIVE\UNIVERSITY\Y2\S1\COSC1187 - INTERACTIVE 3D GRAPHICS AND ANIMATION\ASSIGNMENTS\A3\A3\SOURCES\PLAYER.C
C:\USERS\UNIVERSITY\ONEDRIVE\UNIVERSITY\Y2\S1\COSC1187 - INTERACTIVE 3D GRAPHICS AND ANIMATION\ASSIGNMENTS\A3\A3\DEBUG\VC141.PDB
C:\USERS\UNIVERSITY\ONEDRIVE\UNIVERSITY\Y2\S1\COSC1187 - INTERACTIVE 3D GRAPHICS AND ANIMATION\ASSIGNMENTS\A3\A3\DEBUG\VC141.IDB
C:\USERS\UNIVERSITY\ONEDRIVE\UNIVERSITY\Y2\S1\COSC1187 - INTERACTIVE 3D GRAPHICS AND ANIMATION\ASSIGNMENTS\A3\A3\DEBUG\CAMERA.OBJ
C:\USERS\UNIVERSITY\ONEDRIVE\UNIVERSITY\Y2\S1\COSC1187 - INTERACTIVE 3D GRAPHICS AND ANIMATION\ASSIGNMENTS\A3\A3\DEBUG\GLOBALS.OBJ
C:\USERS\UNIVERSITY\ONEDRIVE\UNIVERSITY\Y2\S1\COSC1187 - INTERACTIVE 3D GRAPHICS AND ANIMATION\ASSIGNMENTS\A3\A3\DEBUG\MAIN.OBJ
C:\USERS\UNIVERSITY\ONEDRIVE\UNIVERSITY\Y2\S1\COSC1187 - INTERACTIVE 3D GRAPHICS AND ANIMATION\ASSIGNMENTS\A3\A3\DEBUG\PARABOLA.OBJ
C:\USERS\UNIVERSITY\ONEDRIVE\UNIVERSITY\Y2\S1\COSC1187 - INTERACTIVE 3D GRAPHICS AND ANIMATION\ASSIGNMENTS\A3\A3\DEBUG\PLAYER.OBJ
^C:\USERS\UNIVERSITY\ONEDRIVE\UNIVERSITY\Y2\S1\COSC1187 - INTERACTIVE 3D GRAPHICS AND ANIMATION\ASSIGNMENTS\A3\A3\SOURCES\CARS.C|C:\USERS\UNIVERSITY\ONEDRIVE\UNIVERSITY\Y2\S1\COSC1187 - INTERACTIVE 3D GRAPHICS AND ANIMATION\ASSIGNMENTS\A3\A3\SOURCES\PLAYER.C
C:\USERS\UNIVERSITY\ONEDRIVE\UNIVERSITY\Y2\S1\COSC1187 - INTERACTIVE 3D GRAPHICS AND ANIMATION\ASSIGNMENTS\A3\A3\DEBUG\VC141.PDB
C:\USERS\UNIVERSITY\ONEDRIVE\UNIVERSITY\Y2\S1\COSC1187 - INTERACTIVE 3D GRAPHICS AND ANIMATION\ASSIGNMENTS\A3\A3\DEBUG\VC141.IDB
C:\USERS\UNIVERSITY\ONEDRIVE\UNIVERSITY\Y2\S1\COSC1187 - INTERACTIVE 3D GRAPHICS AND ANIMATION\ASSIGNMENTS\A3\A3\DEBUG\CARS.OBJ
C:\USERS\UNIVERSITY\ONEDRIVE\UNIVERSITY\Y2\S1\COSC1187 - INTERACTIVE 3D GRAPHICS AND ANIMATION\ASSIGNMENTS\A3\A3\DEBUG\PLAYER.OBJ
^C:\USERS\UNIVERSITY\ONEDRIVE\UNIVERSITY\Y2\S1\COSC1187 - INTERACTIVE 3D GRAPHICS AND ANIMATION\ASSIGNMENTS\A3\A3\SOURCES\GLOBALS.C|C:\USERS\UNIVERSITY\ONEDRIVE\UNIVERSITY\Y2\S1\COSC1187 - INTERACTIVE 3D GRAPHICS AND ANIMATION\ASSIGNMENTS\A3\A3\SOURCES\MAIN.C|C:\USERS\UNIVERSITY\ONEDRIVE\UNIVERSITY\Y2\S1\COSC1187 - INTERACTIVE 3D GRAPHICS AND ANIMATION\ASSIGNMENTS\A3\A3\SOURCES\SKYBOX.C
C:\USERS\UNIVERSITY\ONEDRIVE\UNIVERSITY\Y2\S1\COSC1187 - INTERACTIVE 3D GRAPHICS AND ANIMATION\ASSIGNMENTS\A3\A3\DEBUG\VC141.PDB
C:\USERS\UNIVERSITY\ONEDRIVE\UNIVERSITY\Y2\S1\COSC1187 - INTERACTIVE 3D GRAPHICS AND ANIMATION\ASSIGNMENTS\A3\A3\DEBUG\VC141.IDB
C:\USERS\UNIVERSITY\ONEDRIVE\UNIVERSITY\Y2\S1\COSC1187 - INTERACTIVE 3D GRAPHICS AND ANIMATION\ASSIGNMENTS\A3\A3\DEBUG\GLOBALS.OBJ
C:\USERS\UNIVERSITY\ONEDRIVE\UNIVERSITY\Y2\S1\COSC1187 - INTERACTIVE 3D GRAPHICS AND ANIMATION\ASSIGNMENTS\A3\A3\DEBUG\MAIN.OBJ
C:\USERS\UNIVERSITY\ONEDRIVE\UNIVERSITY\Y2\S1\COSC1187 - INTERACTIVE 3D GRAPHICS AND ANIMATION\ASSIGNMENTS\A3\A3\DEBUG\SKYBOX.OBJ
^C:\USERS\UNIVERSITY\ONEDRIVE\UNIVERSITY\Y2\S1\COSC1187 - INTERACTIVE 3D GRAPHICS AND ANIMATION\ASSIGNMENTS\A3\A3\SOURCES\SKYBOX.C
C:\USERS\UNIVERSITY\ONEDRIVE\UNIVERSITY\Y2\S1\COSC1187 - INTERACTIVE 3D GRAPHICS AND ANIMATION\ASSIGNMENTS\A3\A3\DEBUG\VC141.PDB
^C:\USERS\UNIVERSITY\ONEDRIVE\UNIVERSITY\Y2\S1\COSC1187 - INTERACTIVE 3D GRAPHICS AND ANIMATION\ASSIGNMENTS\A3\A3\SOURCES\GLOBALS.C|C:\USERS\UNIVERSITY\ONEDRIVE\UNIVERSITY\Y2\S1\COSC1187 - INTERACTIVE 3D GRAPHICS AND ANIMATION\ASSIGNMENTS\A3\A3\SOURCES\MAIN.C|C:\USERS\UNIVERSITY\ONEDRIVE\UNIVERSITY\Y2\S1\COSC1187 - INTERACTIVE 3D GRAPHICS AND ANIMATION\ASSIGNMENTS\A3\A3\SOURCES\ROAD.C|C:\USERS\UNIVERSITY\ONEDRIVE\UNIVERSITY\Y2\S1\COSC1187 - INTERACTIVE 3D GRAPHICS AND ANIMATION\ASSIGNMENTS\A3\A3\SOURCES\TERRAIN.C
C:\USERS\UNIVERSITY\ONEDRIVE\UNIVERSITY\Y2\S1\COSC1187 - INTERACTIVE 3D GRAPHICS AND ANIMATION\ASSIGNMENTS\A3\A3\DEBUG\VC141.PDB
C:\USERS\UNIVERSITY\ONEDRIVE\UNIVERSITY\Y2\S1\COSC1187 - INTERACTIVE 3D GRAPHICS AND ANIMATION\ASSIGNMENTS\A3\A3\DEBUG\VC141.IDB
C:\USERS\UNIVERSITY\ONEDRIVE\UNIVERSITY\Y2\S1\COSC1187 - INTERACTIVE 3D GRAPHICS AND ANIMATION\ASSIGNMENTS\A3\A3\DEBUG\GLOBALS.OBJ
C:\USERS\UNIVERSITY\ONEDRIVE\UNIVERSITY\Y2\S1\COSC1187 - INTERACTIVE 3D GRAPHICS AND ANIMATION\ASSIGNMENTS\A3\A3\DEBUG\MAIN.OBJ
C:\USERS\UNIVERSITY\ONEDRIVE\UNIVERSITY\Y2\S1\COSC1187 - INTERACTIVE 3D GRAPHICS AND ANIMATION\ASSIGNMENTS\A3\A3\DEBUG\ROAD.OBJ
C:\USERS\UNIVERSITY\ONEDRIVE\UNIVERSITY\Y2\S1\COSC1187 - INTERACTIVE 3D GRAPHICS AND ANIMATION\ASSIGNMENTS\A3\A3\DEBUG\TERRAIN.OBJ
^C:\USERS\UNIVERSITY\ONEDRIVE\UNIVERSITY\Y2\S1\COSC1187 - INTERACTIVE 3D GRAPHICS AND ANIMATION\ASSIGNMENTS\A3\A3\SOURCES\GLOBALS.C|C:\USERS\UNIVERSITY\ONEDRIVE\UNIVERSITY\Y2\S1\COSC1187 - INTERACTIVE 3D GRAPHICS AND ANIMATION\ASSIGNMENTS\A3\A3\SOURCES\MAIN.C|C:\USERS\UNIVERSITY\ONEDRIVE\UNIVERSITY\Y2\S1\COSC1187 - INTERACTIVE 3D GRAPHICS AND ANIMATION\ASSIGNMENTS\A3\A3\SOURCES\TERRAIN.C
C:\USERS\UNIVERSITY\ONEDRIVE\UNIVERSITY\Y2\S1\COSC1187 - INTERACTIVE 3D GRAPHICS AND ANIMATION\ASSIGNMENTS\A3\A3\DEBUG\VC141.PDB
C:\USERS\UNIVERSITY\ONEDRIVE\UNIVERSITY\Y2\S1\COSC1187 - INTERACTIVE 3D GRAPHICS AND ANIMATION\ASSIGNMENTS\A3\A3\DEBUG\VC141.IDB
C:\USERS\UNIVERSITY\ONEDRIVE\UNIVERSITY\Y2\S1\COSC1187 - INTERACTIVE 3D GRAPHICS AND ANIMATION\ASSIGNMENTS\A3\A3\DEBUG\MAIN.OBJ
C:\USERS\UNIVERSITY\ONEDRIVE\UNIVERSITY\Y2\S1\COSC1187 - INTERACTIVE 3D GRAPHICS AND ANIMATION\ASSIGNMENTS\A3\A3\DEBUG\TERRAIN.OBJ
^C:\USERS\UNIVERSITY\ONEDRIVE\UNIVERSITY\Y2\S1\COSC1187 - INTERACTIVE 3D GRAPHICS AND ANIMATION\ASSIGNMENTS\A3\A3\SOURCES\GLOBALS.C|C:\USERS\UNIVERSITY\ONEDRIVE\UNIVERSITY\Y2\S1\COSC1187 - INTERACTIVE 3D GRAPHICS AND ANIMATION\ASSIGNMENTS\A3\A3\SOURCES\MAIN.C
C:\USERS\UNIVERSITY\ONEDRIVE\UNIVERSITY\Y2\S1\COSC1187 - INTERACTIVE 3D GRAPHICS AND ANIMATION\ASSIGNMENTS\A3\A3\DEBUG\VC141.PDB
C:\USERS\UNIVERSITY\ONEDRIVE\UNIVERSITY\Y2\S1\COSC1187 - INTERACTIVE 3D GRAPHICS AND ANIMATION\ASSIGNMENTS\A3\A3\DEBUG\VC141.IDB
C:\USERS\UNIVERSITY\ONEDRIVE\UNIVERSITY\Y2\S1\COSC1187 - INTERACTIVE 3D GRAPHICS AND ANIMATION\ASSIGNMENTS\A3\A3\DEBUG\GLOBALS.OBJ
C:\USERS\UNIVERSITY\ONEDRIVE\UNIVERSITY\Y2\S1\COSC1187 - INTERACTIVE 3D GRAPHICS AND ANIMATION\ASSIGNMENTS\A3\A3\DEBUG\MAIN.OBJ
^C:\USERS\UNIVERSITY\ONEDRIVE\UNIVERSITY\Y2\S1\COSC1187 - INTERACTIVE 3D GRAPHICS AND ANIMATION\ASSIGNMENTS\A3\A3\SOURCES\CARS.C|C:\USERS\UNIVERSITY\ONEDRIVE\UNIVERSITY\Y2\S1\COSC1187 - INTERACTIVE 3D GRAPHICS AND ANIMATION\ASSIGNMENTS\A3\A3\SOURCES\GLOBALS.C|C:\USERS\UNIVERSITY\ONEDRIVE\UNIVERSITY\Y2\S1\COSC1187 - INTERACTIVE 3D GRAPHICS AND ANIMATION\ASSIGNMENTS\A3\A3\SOURCES\LOGS.C|C:\USERS\UNIVERSITY\ONEDRIVE\UNIVERSITY\Y2\S1\COSC1187 - INTERACTIVE 3D GRAPHICS AND ANIMATION\ASSIGNMENTS\A3\A3\SOURCES\MAIN.C|C:\USERS\UNIVERSITY\ONEDRIVE\UNIVERSITY\Y2\S1\COSC1187 - INTERACTIVE 3D GRAPHICS AND ANIMATION\ASSIGNMENTS\A3\A3\SOURCES\MESH.C|C:\USERS\UNIVERSITY\ONEDRIVE\UNIVERSITY\Y2\S1\COSC1187 - INTERACTIVE 3D GRAPHICS AND ANIMATION\ASSIGNMENTS\A3\A3\SOURCES\PLAYER.C|C:\USERS\UNIVERSITY\ONEDRIVE\UNIVERSITY\Y2\S1\COSC1187 - INTERACTIVE 3D GRAPHICS AND ANIMATION\ASSIGNMENTS\A3\A3\SOURCES\RIVER.C|C:\USERS\UNIVERSITY\ONEDRIVE\UNIVERSITY\Y2\S1\COSC1187 - INTERACTIVE 3D GRAPHICS AND ANIMATION\ASSIGNMENTS\A3\A3\SOURCES\ROAD.C|C:\USERS\UNIVERSITY\ONEDRIVE\UNIVERSITY\Y2\S1\COSC1187 - INTERACTIVE 3D GRAPHICS AND ANIMATION\ASSIGNMENTS\A3\A3\SOURCES\SKYBOX.C|C:\USERS\UNIVERSITY\ONEDRIVE\UNIVERSITY\Y2\S1\COSC1187 - INTERACTIVE 3D GRAPHICS AND ANIMATION\ASSIGNMENTS\A3\A3\SOURCES\TERRAIN.C
C:\USERS\UNIVERSITY\ONEDRIVE\UNIVERSITY\Y2\S1\COSC1187 - INTERACTIVE 3D GRAPHICS AND ANIMATION\ASSIGNMENTS\A3\A3\DEBUG\VC141.PDB
C:\USERS\UNIVERSITY\ONEDRIVE\UNIVERSITY\Y2\S1\COSC1187 - INTERACTIVE 3D GRAPHICS AND ANIMATION\ASSIGNMENTS\A3\A3\DEBUG\VC141.IDB
C:\USERS\UNIVERSITY\ONEDRIVE\UNIVERSITY\Y2\S1\COSC1187 - INTERACTIVE 3D GRAPHICS AND ANIMATION\ASSIGNMENTS\A3\A3\DEBUG\CARS.OBJ
C:\USERS\UNIVERSITY\ONEDRIVE\UNIVERSITY\Y2\S1\COSC1187 - INTERACTIVE 3D GRAPHICS AND ANIMATION\ASSIGNMENTS\A3\A3\DEBUG\GLOBALS.OBJ
C:\USERS\UNIVERSITY\ONEDRIVE\UNIVERSITY\Y2\S1\COSC1187 - INTERACTIVE 3D GRAPHICS AND ANIMATION\ASSIGNMENTS\A3\A3\DEBUG\LOGS.OBJ
C:\USERS\UNIVERSITY\ONEDRIVE\UNIVERSITY\Y2\S1\COSC1187 - INTERACTIVE 3D GRAPHICS AND ANIMATION\ASSIGNMENTS\A3\A3\DEBUG\MAIN.OBJ
C:\USERS\UNIVERSITY\ONEDRIVE\UNIVERSITY\Y2\S1\COSC1187 - INTERACTIVE 3D GRAPHICS AND ANIMATION\ASSIGNMENTS\A3\A3\DEBUG\MESH.OBJ
C:\USERS\UNIVERSITY\ONEDRIVE\UNIVERSITY\Y2\S1\COSC1187 - INTERACTIVE 3D GRAPHICS AND ANIMATION\ASSIGNMENTS\A3\A3\DEBUG\PLAYER.OBJ
C:\USERS\UNIVERSITY\ONEDRIVE\UNIVERSITY\Y2\S1\COSC1187 - INTERACTIVE 3D GRAPHICS AND ANIMATION\ASSIGNMENTS\A3\A3\DEBUG\RIVER.OBJ
C:\USERS\UNIVERSITY\ONEDRIVE\UNIVERSITY\Y2\S1\COSC1187 - INTERACTIVE 3D GRAPHICS AND ANIMATION\ASSIGNMENTS\A3\A3\DEBUG\ROAD.OBJ
C:\USERS\UNIVERSITY\ONEDRIVE\UNIVERSITY\Y2\S1\COSC1187 - INTERACTIVE 3D GRAPHICS AND ANIMATION\ASSIGNMENTS\A3\A3\DEBUG\SKYBOX.OBJ
C:\USERS\UNIVERSITY\ONEDRIVE\UNIVERSITY\Y2\S1\COSC1187 - INTERACTIVE 3D GRAPHICS AND ANIMATION\ASSIGNMENTS\A3\A3\DEBUG\TERRAIN.OBJ
