^C:\USERS\UNIVERSITY\ONEDRIVE\UNIVERSITY\Y2\S1\COSC1187 - INTERACTIVE 3D GRAPHICS AND ANIMATION\ASSIGNMENTS\EXAMPLE\EXAMPLE\SOURCES\CAMERA.C|C:\USERS\UNIVERSITY\ONEDRIVE\UNIVERSITY\Y2\S1\COSC1187 - INTERACTIVE 3D GRAPHICS AND ANIMATION\ASSIGNMENTS\EXAMPLE\EXAMPLE\SOURCES\CONTROLS.C|C:\USERS\UNIVERSITY\ONEDRIVE\UNIVERSITY\Y2\S1\COSC1187 - INTERACTIVE 3D GRAPHICS AND ANIMATION\ASSIGNMENTS\EXAMPLE\EXAMPLE\SOURCES\GL.C|C:\USERS\UNIVERSITY\ONEDRIVE\UNIVERSITY\Y2\S1\COSC1187 - INTERACTIVE 3D GRAPHICS AND ANIMATION\ASSIGNMENTS\EXAMPLE\EXAMPLE\SOURCES\GLOBALS.C|C:\USERS\UNIVERSITY\ONEDRIVE\UNIVERSITY\Y2\S1\COSC1187 - INTERACTIVE 3D GRAPHICS AND ANIMATION\ASSIGNMENTS\EXAMPLE\EXAMPLE\SOURCES\LIGHT.C|C:\USERS\UNIVERSITY\ONEDRIVE\UNIVERSITY\Y2\S1\COSC1187 - INTERACTIVE 3D GRAPHICS AND ANIMATION\ASSIGNMENTS\EXAMPLE\EXAMPLE\SOURCES\MAIN.C|C:\USERS\UNIVERSITY\ONEDRIVE\UNIVERSITY\Y2\S1\COSC1187 - INTERACTIVE 3D GRAPHICS AND ANIMATION\ASSIGNMENTS\EXAMPLE\EXAMPLE\SOURCES\MATERIAL.C|C:\USERS\UNIVERSITY\ONEDRIVE\UNIVERSITY\Y2\S1\COSC1187 - INTERACTIVE 3D GRAPHICS AND ANIMATION\ASSIGNMENTS\EXAMPLE\EXAMPLE\SOURCES\MESH.C|C:\USERS\UNIVERSITY\ONEDRIVE\UNIVERSITY\Y2\S1\COSC1187 - INTERACTIVE 3D GRAPHICS AND ANIMATION\ASSIGNMENTS\EXAMPLE\EXAMPLE\SOURCES\PARABOLA.C|C:\USERS\UNIVERSITY\ONEDRIVE\UNIVERSITY\Y2\S1\COSC1187 - INTERACTIVE 3D GRAPHICS AND ANIMATION\ASSIGNMENTS\EXAMPLE\EXAMPLE\SOURCES\PLAYER.C|C:\USERS\UNIVERSITY\ONEDRIVE\UNIVERSITY\Y2\S1\COSC1187 - INTERACTIVE 3D GRAPHICS AND ANIMATION\ASSIGNMENTS\EXAMPLE\EXAMPLE\SOURCES\RIVER.C|C:\USERS\UNIVERSITY\ONEDRIVE\UNIVERSITY\Y2\S1\COSC1187 - INTERACTIVE 3D GRAPHICS AND ANIMATION\ASSIGNMENTS\EXAMPLE\EXAMPLE\SOURCES\ROAD.C|C:\USERS\UNIVERSITY\ONEDRIVE\UNIVERSITY\Y2\S1\COSC1187 - INTERACTIVE 3D GRAPHICS AND ANIMATION\ASSIGNMENTS\EXAMPLE\EXAMPLE\SOURCES\TERRAIN.C|C:\USERS\UNIVERSITY\ONEDRIVE\UNIVERSITY\Y2\S1\COSC1187 - INTERACTIVE 3D GRAPHICS AND ANIMATION\ASSIGNMENTS\EXAMPLE\EXAMPLE\SOURCES\UTILS.C
C:\USERS\UNIVERSITY\ONEDRIVE\UNIVERSITY\Y2\S1\COSC1187 - INTERACTIVE 3D GRAPHICS AND ANIMATION\ASSIGNMENTS\EXAMPLE\EXAMPLE\DEBUG\VC141.PDB
C:\USERS\UNIVERSITY\ONEDRIVE\UNIVERSITY\Y2\S1\COSC1187 - INTERACTIVE 3D GRAPHICS AND ANIMATION\ASSIGNMENTS\EXAMPLE\EXAMPLE\DEBUG\VC141.IDB
C:\USERS\UNIVERSITY\ONEDRIVE\UNIVERSITY\Y2\S1\COSC1187 - INTERACTIVE 3D GRAPHICS AND ANIMATION\ASSIGNMENTS\EXAMPLE\EXAMPLE\DEBUG\CAMERA.OBJ
C:\USERS\UNIVERSITY\ONEDRIVE\UNIVERSITY\Y2\S1\COSC1187 - INTERACTIVE 3D GRAPHICS AND ANIMATION\ASSIGNMENTS\EXAMPLE\EXAMPLE\DEBUG\CONTROLS.OBJ
C:\USERS\UNIVERSITY\ONEDRIVE\UNIVERSITY\Y2\S1\COSC1187 - INTERACTIVE 3D GRAPHICS AND ANIMATION\ASSIGNMENTS\EXAMPLE\EXAMPLE\DEBUG\GL.OBJ
C:\USERS\UNIVERSITY\ONEDRIVE\UNIVERSITY\Y2\S1\COSC1187 - INTERACTIVE 3D GRAPHICS AND ANIMATION\ASSIGNMENTS\EXAMPLE\EXAMPLE\DEBUG\GLOBALS.OBJ
C:\USERS\UNIVERSITY\ONEDRIVE\UNIVERSITY\Y2\S1\COSC1187 - INTERACTIVE 3D GRAPHICS AND ANIMATION\ASSIGNMENTS\EXAMPLE\EXAMPLE\DEBUG\LIGHT.OBJ
C:\USERS\UNIVERSITY\ONEDRIVE\UNIVERSITY\Y2\S1\COSC1187 - INTERACTIVE 3D GRAPHICS AND ANIMATION\ASSIGNMENTS\EXAMPLE\EXAMPLE\DEBUG\MAIN.OBJ
C:\USERS\UNIVERSITY\ONEDRIVE\UNIVERSITY\Y2\S1\COSC1187 - INTERACTIVE 3D GRAPHICS AND ANIMATION\ASSIGNMENTS\EXAMPLE\EXAMPLE\DEBUG\MATERIAL.OBJ
C:\USERS\UNIVERSITY\ONEDRIVE\UNIVERSITY\Y2\S1\COSC1187 - INTERACTIVE 3D GRAPHICS AND ANIMATION\ASSIGNMENTS\EXAMPLE\EXAMPLE\DEBUG\MESH.OBJ
C:\USERS\UNIVERSITY\ONEDRIVE\UNIVERSITY\Y2\S1\COSC1187 - INTERACTIVE 3D GRAPHICS AND ANIMATION\ASSIGNMENTS\EXAMPLE\EXAMPLE\DEBUG\PARABOLA.OBJ
C:\USERS\UNIVERSITY\ONEDRIVE\UNIVERSITY\Y2\S1\COSC1187 - INTERACTIVE 3D GRAPHICS AND ANIMATION\ASSIGNMENTS\EXAMPLE\EXAMPLE\DEBUG\PLAYER.OBJ
C:\USERS\UNIVERSITY\ONEDRIVE\UNIVERSITY\Y2\S1\COSC1187 - INTERACTIVE 3D GRAPHICS AND ANIMATION\ASSIGNMENTS\EXAMPLE\EXAMPLE\DEBUG\RIVER.OBJ
C:\USERS\UNIVERSITY\ONEDRIVE\UNIVERSITY\Y2\S1\COSC1187 - INTERACTIVE 3D GRAPHICS AND ANIMATION\ASSIGNMENTS\EXAMPLE\EXAMPLE\DEBUG\ROAD.OBJ
C:\USERS\UNIVERSITY\ONEDRIVE\UNIVERSITY\Y2\S1\COSC1187 - INTERACTIVE 3D GRAPHICS AND ANIMATION\ASSIGNMENTS\EXAMPLE\EXAMPLE\DEBUG\TERRAIN.OBJ
C:\USERS\UNIVERSITY\ONEDRIVE\UNIVERSITY\Y2\S1\COSC1187 - INTERACTIVE 3D GRAPHICS AND ANIMATION\ASSIGNMENTS\EXAMPLE\EXAMPLE\DEBUG\UTILS.OBJ
^C:\USERS\UNIVERSITY\ONEDRIVE\UNIVERSITY\Y2\S1\COSC1187 - INTERACTIVE 3D GRAPHICS AND ANIMATION\ASSIGNMENTS\EXAMPLE\EXAMPLE\SOURCES\CAMERA.C
C:\USERS\UNIVERSITY\ONEDRIVE\UNIVERSITY\Y2\S1\COSC1187 - INTERACTIVE 3D GRAPHICS AND ANIMATION\ASSIGNMENTS\EXAMPLE\EXAMPLE\DEBUG\VC141.PDB
^C:\USERS\UNIVERSITY\ONEDRIVE\UNIVERSITY\Y2\S1\COSC1187 - INTERACTIVE 3D GRAPHICS AND ANIMATION\ASSIGNMENTS\EXAMPLE\EXAMPLE\SOURCES\CONTROLS.C
C:\USERS\UNIVERSITY\ONEDRIVE\UNIVERSITY\Y2\S1\COSC1187 - INTERACTIVE 3D GRAPHICS AND ANIMATION\ASSIGNMENTS\EXAMPLE\EXAMPLE\DEBUG\VC141.PDB
^C:\USERS\UNIVERSITY\ONEDRIVE\UNIVERSITY\Y2\S1\COSC1187 - INTERACTIVE 3D GRAPHICS AND ANIMATION\ASSIGNMENTS\EXAMPLE\EXAMPLE\SOURCES\GL.C
C:\USERS\UNIVERSITY\ONEDRIVE\UNIVERSITY\Y2\S1\COSC1187 - INTERACTIVE 3D GRAPHICS AND ANIMATION\ASSIGNMENTS\EXAMPLE\EXAMPLE\DEBUG\VC141.PDB
^C:\USERS\UNIVERSITY\ONEDRIVE\UNIVERSITY\Y2\S1\COSC1187 - INTERACTIVE 3D GRAPHICS AND ANIMATION\ASSIGNMENTS\EXAMPLE\EXAMPLE\SOURCES\GLOBALS.C
C:\USERS\UNIVERSITY\ONEDRIVE\UNIVERSITY\Y2\S1\COSC1187 - INTERACTIVE 3D GRAPHICS AND ANIMATION\ASSIGNMENTS\EXAMPLE\EXAMPLE\DEBUG\VC141.PDB
C:\USERS\UNIVERSITY\ONEDRIVE\UNIVERSITY\Y2\S1\COSC1187 - INTERACTIVE 3D GRAPHICS AND ANIMATION\ASSIGNMENTS\EXAMPLE\EXAMPLE\DEBUG\VC141.IDB
C:\USERS\UNIVERSITY\ONEDRIVE\UNIVERSITY\Y2\S1\COSC1187 - INTERACTIVE 3D GRAPHICS AND ANIMATION\ASSIGNMENTS\EXAMPLE\EXAMPLE\DEBUG\GLOBALS.OBJ
^C:\USERS\UNIVERSITY\ONEDRIVE\UNIVERSITY\Y2\S1\COSC1187 - INTERACTIVE 3D GRAPHICS AND ANIMATION\ASSIGNMENTS\EXAMPLE\EXAMPLE\SOURCES\LIGHT.C
C:\USERS\UNIVERSITY\ONEDRIVE\UNIVERSITY\Y2\S1\COSC1187 - INTERACTIVE 3D GRAPHICS AND ANIMATION\ASSIGNMENTS\EXAMPLE\EXAMPLE\DEBUG\VC141.PDB
^C:\USERS\UNIVERSITY\ONEDRIVE\UNIVERSITY\Y2\S1\COSC1187 - INTERACTIVE 3D GRAPHICS AND ANIMATION\ASSIGNMENTS\EXAMPLE\EXAMPLE\SOURCES\MAIN.C
C:\USERS\UNIVERSITY\ONEDRIVE\UNIVERSITY\Y2\S1\COSC1187 - INTERACTIVE 3D GRAPHICS AND ANIMATION\ASSIGNMENTS\EXAMPLE\EXAMPLE\DEBUG\VC141.PDB
C:\USERS\UNIVERSITY\ONEDRIVE\UNIVERSITY\Y2\S1\COSC1187 - INTERACTIVE 3D GRAPHICS AND ANIMATION\ASSIGNMENTS\EXAMPLE\EXAMPLE\DEBUG\VC141.IDB
C:\USERS\UNIVERSITY\ONEDRIVE\UNIVERSITY\Y2\S1\COSC1187 - INTERACTIVE 3D GRAPHICS AND ANIMATION\ASSIGNMENTS\EXAMPLE\EXAMPLE\DEBUG\MAIN.OBJ
^C:\USERS\UNIVERSITY\ONEDRIVE\UNIVERSITY\Y2\S1\COSC1187 - INTERACTIVE 3D GRAPHICS AND ANIMATION\ASSIGNMENTS\EXAMPLE\EXAMPLE\SOURCES\MATERIAL.C
C:\USERS\UNIVERSITY\ONEDRIVE\UNIVERSITY\Y2\S1\COSC1187 - INTERACTIVE 3D GRAPHICS AND ANIMATION\ASSIGNMENTS\EXAMPLE\EXAMPLE\DEBUG\VC141.PDB
C:\USERS\UNIVERSITY\ONEDRIVE\UNIVERSITY\Y2\S1\COSC1187 - INTERACTIVE 3D GRAPHICS AND ANIMATION\ASSIGNMENTS\EXAMPLE\EXAMPLE\DEBUG\VC141.IDB
C:\USERS\UNIVERSITY\ONEDRIVE\UNIVERSITY\Y2\S1\COSC1187 - INTERACTIVE 3D GRAPHICS AND ANIMATION\ASSIGNMENTS\EXAMPLE\EXAMPLE\DEBUG\MATERIAL.OBJ
^C:\USERS\UNIVERSITY\ONEDRIVE\UNIVERSITY\Y2\S1\COSC1187 - INTERACTIVE 3D GRAPHICS AND ANIMATION\ASSIGNMENTS\EXAMPLE\EXAMPLE\SOURCES\MESH.C
C:\USERS\UNIVERSITY\ONEDRIVE\UNIVERSITY\Y2\S1\COSC1187 - INTERACTIVE 3D GRAPHICS AND ANIMATION\ASSIGNMENTS\EXAMPLE\EXAMPLE\DEBUG\VC141.PDB
^C:\USERS\UNIVERSITY\ONEDRIVE\UNIVERSITY\Y2\S1\COSC1187 - INTERACTIVE 3D GRAPHICS AND ANIMATION\ASSIGNMENTS\EXAMPLE\EXAMPLE\SOURCES\PARABOLA.C
C:\USERS\UNIVERSITY\ONEDRIVE\UNIVERSITY\Y2\S1\COSC1187 - INTERACTIVE 3D GRAPHICS AND ANIMATION\ASSIGNMENTS\EXAMPLE\EXAMPLE\DEBUG\VC141.PDB
^C:\USERS\UNIVERSITY\ONEDRIVE\UNIVERSITY\Y2\S1\COSC1187 - INTERACTIVE 3D GRAPHICS AND ANIMATION\ASSIGNMENTS\EXAMPLE\EXAMPLE\SOURCES\PLAYER.C
C:\USERS\UNIVERSITY\ONEDRIVE\UNIVERSITY\Y2\S1\COSC1187 - INTERACTIVE 3D GRAPHICS AND ANIMATION\ASSIGNMENTS\EXAMPLE\EXAMPLE\DEBUG\VC141.PDB
^C:\USERS\UNIVERSITY\ONEDRIVE\UNIVERSITY\Y2\S1\COSC1187 - INTERACTIVE 3D GRAPHICS AND ANIMATION\ASSIGNMENTS\EXAMPLE\EXAMPLE\SOURCES\RIVER.C
C:\USERS\UNIVERSITY\ONEDRIVE\UNIVERSITY\Y2\S1\COSC1187 - INTERACTIVE 3D GRAPHICS AND ANIMATION\ASSIGNMENTS\EXAMPLE\EXAMPLE\DEBUG\VC141.PDB
C:\USERS\UNIVERSITY\ONEDRIVE\UNIVERSITY\Y2\S1\COSC1187 - INTERACTIVE 3D GRAPHICS AND ANIMATION\ASSIGNMENTS\EXAMPLE\EXAMPLE\DEBUG\VC141.IDB
C:\USERS\UNIVERSITY\ONEDRIVE\UNIVERSITY\Y2\S1\COSC1187 - INTERACTIVE 3D GRAPHICS AND ANIMATION\ASSIGNMENTS\EXAMPLE\EXAMPLE\DEBUG\RIVER.OBJ
^C:\USERS\UNIVERSITY\ONEDRIVE\UNIVERSITY\Y2\S1\COSC1187 - INTERACTIVE 3D GRAPHICS AND ANIMATION\ASSIGNMENTS\EXAMPLE\EXAMPLE\SOURCES\ROAD.C
C:\USERS\UNIVERSITY\ONEDRIVE\UNIVERSITY\Y2\S1\COSC1187 - INTERACTIVE 3D GRAPHICS AND ANIMATION\ASSIGNMENTS\EXAMPLE\EXAMPLE\DEBUG\VC141.PDB
C:\USERS\UNIVERSITY\ONEDRIVE\UNIVERSITY\Y2\S1\COSC1187 - INTERACTIVE 3D GRAPHICS AND ANIMATION\ASSIGNMENTS\EXAMPLE\EXAMPLE\DEBUG\VC141.IDB
C:\USERS\UNIVERSITY\ONEDRIVE\UNIVERSITY\Y2\S1\COSC1187 - INTERACTIVE 3D GRAPHICS AND ANIMATION\ASSIGNMENTS\EXAMPLE\EXAMPLE\DEBUG\ROAD.OBJ
^C:\USERS\UNIVERSITY\ONEDRIVE\UNIVERSITY\Y2\S1\COSC1187 - INTERACTIVE 3D GRAPHICS AND ANIMATION\ASSIGNMENTS\EXAMPLE\EXAMPLE\SOURCES\TERRAIN.C
C:\USERS\UNIVERSITY\ONEDRIVE\UNIVERSITY\Y2\S1\COSC1187 - INTERACTIVE 3D GRAPHICS AND ANIMATION\ASSIGNMENTS\EXAMPLE\EXAMPLE\DEBUG\VC141.PDB
C:\USERS\UNIVERSITY\ONEDRIVE\UNIVERSITY\Y2\S1\COSC1187 - INTERACTIVE 3D GRAPHICS AND ANIMATION\ASSIGNMENTS\EXAMPLE\EXAMPLE\DEBUG\VC141.IDB
C:\USERS\UNIVERSITY\ONEDRIVE\UNIVERSITY\Y2\S1\COSC1187 - INTERACTIVE 3D GRAPHICS AND ANIMATION\ASSIGNMENTS\EXAMPLE\EXAMPLE\DEBUG\TERRAIN.OBJ
^C:\USERS\UNIVERSITY\ONEDRIVE\UNIVERSITY\Y2\S1\COSC1187 - INTERACTIVE 3D GRAPHICS AND ANIMATION\ASSIGNMENTS\EXAMPLE\EXAMPLE\SOURCES\UTILS.C
C:\USERS\UNIVERSITY\ONEDRIVE\UNIVERSITY\Y2\S1\COSC1187 - INTERACTIVE 3D GRAPHICS AND ANIMATION\ASSIGNMENTS\EXAMPLE\EXAMPLE\DEBUG\VC141.PDB
^C:\USERS\UNIVERSITY\ONEDRIVE\UNIVERSITY\Y2\S1\COSC1187 - INTERACTIVE 3D GRAPHICS AND ANIMATION\ASSIGNMENTS\EXAMPLE\EXAMPLE\SOURCES\CAMERA.C|C:\USERS\UNIVERSITY\ONEDRIVE\UNIVERSITY\Y2\S1\COSC1187 - INTERACTIVE 3D GRAPHICS AND ANIMATION\ASSIGNMENTS\EXAMPLE\EXAMPLE\SOURCES\GL.C|C:\USERS\UNIVERSITY\ONEDRIVE\UNIVERSITY\Y2\S1\COSC1187 - INTERACTIVE 3D GRAPHICS AND ANIMATION\ASSIGNMENTS\EXAMPLE\EXAMPLE\SOURCES\GLOBALS.C|C:\USERS\UNIVERSITY\ONEDRIVE\UNIVERSITY\Y2\S1\COSC1187 - INTERACTIVE 3D GRAPHICS AND ANIMATION\ASSIGNMENTS\EXAMPLE\EXAMPLE\SOURCES\MAIN.C
C:\USERS\UNIVERSITY\ONEDRIVE\UNIVERSITY\Y2\S1\COSC1187 - INTERACTIVE 3D GRAPHICS AND ANIMATION\ASSIGNMENTS\EXAMPLE\EXAMPLE\DEBUG\VC141.PDB
C:\USERS\UNIVERSITY\ONEDRIVE\UNIVERSITY\Y2\S1\COSC1187 - INTERACTIVE 3D GRAPHICS AND ANIMATION\ASSIGNMENTS\EXAMPLE\EXAMPLE\DEBUG\VC141.IDB
C:\USERS\UNIVERSITY\ONEDRIVE\UNIVERSITY\Y2\S1\COSC1187 - INTERACTIVE 3D GRAPHICS AND ANIMATION\ASSIGNMENTS\EXAMPLE\EXAMPLE\DEBUG\CAMERA.OBJ
C:\USERS\UNIVERSITY\ONEDRIVE\UNIVERSITY\Y2\S1\COSC1187 - INTERACTIVE 3D GRAPHICS AND ANIMATION\ASSIGNMENTS\EXAMPLE\EXAMPLE\DEBUG\GL.OBJ
C:\USERS\UNIVERSITY\ONEDRIVE\UNIVERSITY\Y2\S1\COSC1187 - INTERACTIVE 3D GRAPHICS AND ANIMATION\ASSIGNMENTS\EXAMPLE\EXAMPLE\DEBUG\GLOBALS.OBJ
C:\USERS\UNIVERSITY\ONEDRIVE\UNIVERSITY\Y2\S1\COSC1187 - INTERACTIVE 3D GRAPHICS AND ANIMATION\ASSIGNMENTS\EXAMPLE\EXAMPLE\DEBUG\MAIN.OBJ
^C:\USERS\UNIVERSITY\ONEDRIVE\UNIVERSITY\Y2\S1\COSC1187 - INTERACTIVE 3D GRAPHICS AND ANIMATION\ASSIGNMENTS\EXAMPLE\EXAMPLE\CAMERA.C|C:\USERS\UNIVERSITY\ONEDRIVE\UNIVERSITY\Y2\S1\COSC1187 - INTERACTIVE 3D GRAPHICS AND ANIMATION\ASSIGNMENTS\EXAMPLE\EXAMPLE\CONTROLS.C|C:\USERS\UNIVERSITY\ONEDRIVE\UNIVERSITY\Y2\S1\COSC1187 - INTERACTIVE 3D GRAPHICS AND ANIMATION\ASSIGNMENTS\EXAMPLE\EXAMPLE\GL.C|C:\USERS\UNIVERSITY\ONEDRIVE\UNIVERSITY\Y2\S1\COSC1187 - INTERACTIVE 3D GRAPHICS AND ANIMATION\ASSIGNMENTS\EXAMPLE\EXAMPLE\GLOBALS.C|C:\USERS\UNIVERSITY\ONEDRIVE\UNIVERSITY\Y2\S1\COSC1187 - INTERACTIVE 3D GRAPHICS AND ANIMATION\ASSIGNMENTS\EXAMPLE\EXAMPLE\LIGHT.C|C:\USERS\UNIVERSITY\ONEDRIVE\UNIVERSITY\Y2\S1\COSC1187 - INTERACTIVE 3D GRAPHICS AND ANIMATION\ASSIGNMENTS\EXAMPLE\EXAMPLE\MAIN.C|C:\USERS\UNIVERSITY\ONEDRIVE\UNIVERSITY\Y2\S1\COSC1187 - INTERACTIVE 3D GRAPHICS AND ANIMATION\ASSIGNMENTS\EXAMPLE\EXAMPLE\MATERIAL.C|C:\USERS\UNIVERSITY\ONEDRIVE\UNIVERSITY\Y2\S1\COSC1187 - INTERACTIVE 3D GRAPHICS AND ANIMATION\ASSIGNMENTS\EXAMPLE\EXAMPLE\MESH.C|C:\USERS\UNIVERSITY\ONEDRIVE\UNIVERSITY\Y2\S1\COSC1187 - INTERACTIVE 3D GRAPHICS AND ANIMATION\ASSIGNMENTS\EXAMPLE\EXAMPLE\PARABOLA.C|C:\USERS\UNIVERSITY\ONEDRIVE\UNIVERSITY\Y2\S1\COSC1187 - INTERACTIVE 3D GRAPHICS AND ANIMATION\ASSIGNMENTS\EXAMPLE\EXAMPLE\PLAYER.C|C:\USERS\UNIVERSITY\ONEDRIVE\UNIVERSITY\Y2\S1\COSC1187 - INTERACTIVE 3D GRAPHICS AND ANIMATION\ASSIGNMENTS\EXAMPLE\EXAMPLE\RIVER.C|C:\USERS\UNIVERSITY\ONEDRIVE\UNIVERSITY\Y2\S1\COSC1187 - INTERACTIVE 3D GRAPHICS AND ANIMATION\ASSIGNMENTS\EXAMPLE\EXAMPLE\ROAD.C|C:\USERS\UNIVERSITY\ONEDRIVE\UNIVERSITY\Y2\S1\COSC1187 - INTERACTIVE 3D GRAPHICS AND ANIMATION\ASSIGNMENTS\EXAMPLE\EXAMPLE\TERRAIN.C|C:\USERS\UNIVERSITY\ONEDRIVE\UNIVERSITY\Y2\S1\COSC1187 - INTERACTIVE 3D GRAPHICS AND ANIMATION\ASSIGNMENTS\EXAMPLE\EXAMPLE\UTILS.C
C:\USERS\UNIVERSITY\ONEDRIVE\UNIVERSITY\Y2\S1\COSC1187 - INTERACTIVE 3D GRAPHICS AND ANIMATION\ASSIGNMENTS\EXAMPLE\EXAMPLE\DEBUG\VC141.PDB
C:\USERS\UNIVERSITY\ONEDRIVE\UNIVERSITY\Y2\S1\COSC1187 - INTERACTIVE 3D GRAPHICS AND ANIMATION\ASSIGNMENTS\EXAMPLE\EXAMPLE\DEBUG\VC141.IDB
C:\USERS\UNIVERSITY\ONEDRIVE\UNIVERSITY\Y2\S1\COSC1187 - INTERACTIVE 3D GRAPHICS AND ANIMATION\ASSIGNMENTS\EXAMPLE\EXAMPLE\DEBUG\CAMERA.OBJ
C:\USERS\UNIVERSITY\ONEDRIVE\UNIVERSITY\Y2\S1\COSC1187 - INTERACTIVE 3D GRAPHICS AND ANIMATION\ASSIGNMENTS\EXAMPLE\EXAMPLE\DEBUG\CONTROLS.OBJ
C:\USERS\UNIVERSITY\ONEDRIVE\UNIVERSITY\Y2\S1\COSC1187 - INTERACTIVE 3D GRAPHICS AND ANIMATION\ASSIGNMENTS\EXAMPLE\EXAMPLE\DEBUG\GL.OBJ
C:\USERS\UNIVERSITY\ONEDRIVE\UNIVERSITY\Y2\S1\COSC1187 - INTERACTIVE 3D GRAPHICS AND ANIMATION\ASSIGNMENTS\EXAMPLE\EXAMPLE\DEBUG\GLOBALS.OBJ
C:\USERS\UNIVERSITY\ONEDRIVE\UNIVERSITY\Y2\S1\COSC1187 - INTERACTIVE 3D GRAPHICS AND ANIMATION\ASSIGNMENTS\EXAMPLE\EXAMPLE\DEBUG\LIGHT.OBJ
C:\USERS\UNIVERSITY\ONEDRIVE\UNIVERSITY\Y2\S1\COSC1187 - INTERACTIVE 3D GRAPHICS AND ANIMATION\ASSIGNMENTS\EXAMPLE\EXAMPLE\DEBUG\MAIN.OBJ
C:\USERS\UNIVERSITY\ONEDRIVE\UNIVERSITY\Y2\S1\COSC1187 - INTERACTIVE 3D GRAPHICS AND ANIMATION\ASSIGNMENTS\EXAMPLE\EXAMPLE\DEBUG\MATERIAL.OBJ
C:\USERS\UNIVERSITY\ONEDRIVE\UNIVERSITY\Y2\S1\COSC1187 - INTERACTIVE 3D GRAPHICS AND ANIMATION\ASSIGNMENTS\EXAMPLE\EXAMPLE\DEBUG\MESH.OBJ
C:\USERS\UNIVERSITY\ONEDRIVE\UNIVERSITY\Y2\S1\COSC1187 - INTERACTIVE 3D GRAPHICS AND ANIMATION\ASSIGNMENTS\EXAMPLE\EXAMPLE\DEBUG\PARABOLA.OBJ
C:\USERS\UNIVERSITY\ONEDRIVE\UNIVERSITY\Y2\S1\COSC1187 - INTERACTIVE 3D GRAPHICS AND ANIMATION\ASSIGNMENTS\EXAMPLE\EXAMPLE\DEBUG\PLAYER.OBJ
C:\USERS\UNIVERSITY\ONEDRIVE\UNIVERSITY\Y2\S1\COSC1187 - INTERACTIVE 3D GRAPHICS AND ANIMATION\ASSIGNMENTS\EXAMPLE\EXAMPLE\DEBUG\RIVER.OBJ
C:\USERS\UNIVERSITY\ONEDRIVE\UNIVERSITY\Y2\S1\COSC1187 - INTERACTIVE 3D GRAPHICS AND ANIMATION\ASSIGNMENTS\EXAMPLE\EXAMPLE\DEBUG\ROAD.OBJ
C:\USERS\UNIVERSITY\ONEDRIVE\UNIVERSITY\Y2\S1\COSC1187 - INTERACTIVE 3D GRAPHICS AND ANIMATION\ASSIGNMENTS\EXAMPLE\EXAMPLE\DEBUG\TERRAIN.OBJ
C:\USERS\UNIVERSITY\ONEDRIVE\UNIVERSITY\Y2\S1\COSC1187 - INTERACTIVE 3D GRAPHICS AND ANIMATION\ASSIGNMENTS\EXAMPLE\EXAMPLE\DEBUG\UTILS.OBJ
^C:\USERS\UNIVERSITY\ONEDRIVE\UNIVERSITY\Y2\S1\COSC1187 - INTERACTIVE 3D GRAPHICS AND ANIMATION\ASSIGNMENTS\EXAMPLE\EXAMPLE\CAMERA.C
C:\USERS\UNIVERSITY\ONEDRIVE\UNIVERSITY\Y2\S1\COSC1187 - INTERACTIVE 3D GRAPHICS AND ANIMATION\ASSIGNMENTS\EXAMPLE\EXAMPLE\DEBUG\VC141.PDB
^C:\USERS\UNIVERSITY\ONEDRIVE\UNIVERSITY\Y2\S1\COSC1187 - INTERACTIVE 3D GRAPHICS AND ANIMATION\ASSIGNMENTS\EXAMPLE\EXAMPLE\CONTROLS.C
C:\USERS\UNIVERSITY\ONEDRIVE\UNIVERSITY\Y2\S1\COSC1187 - INTERACTIVE 3D GRAPHICS AND ANIMATION\ASSIGNMENTS\EXAMPLE\EXAMPLE\DEBUG\VC141.PDB
^C:\USERS\UNIVERSITY\ONEDRIVE\UNIVERSITY\Y2\S1\COSC1187 - INTERACTIVE 3D GRAPHICS AND ANIMATION\ASSIGNMENTS\EXAMPLE\EXAMPLE\GL.C
C:\USERS\UNIVERSITY\ONEDRIVE\UNIVERSITY\Y2\S1\COSC1187 - INTERACTIVE 3D GRAPHICS AND ANIMATION\ASSIGNMENTS\EXAMPLE\EXAMPLE\DEBUG\VC141.PDB
C:\USERS\UNIVERSITY\ONEDRIVE\UNIVERSITY\Y2\S1\COSC1187 - INTERACTIVE 3D GRAPHICS AND ANIMATION\ASSIGNMENTS\EXAMPLE\EXAMPLE\DEBUG\VC141.IDB
C:\USERS\UNIVERSITY\ONEDRIVE\UNIVERSITY\Y2\S1\COSC1187 - INTERACTIVE 3D GRAPHICS AND ANIMATION\ASSIGNMENTS\EXAMPLE\EXAMPLE\DEBUG\GL.OBJ
^C:\USERS\UNIVERSITY\ONEDRIVE\UNIVERSITY\Y2\S1\COSC1187 - INTERACTIVE 3D GRAPHICS AND ANIMATION\ASSIGNMENTS\EXAMPLE\EXAMPLE\GLOBALS.C
C:\USERS\UNIVERSITY\ONEDRIVE\UNIVERSITY\Y2\S1\COSC1187 - INTERACTIVE 3D GRAPHICS AND ANIMATION\ASSIGNMENTS\EXAMPLE\EXAMPLE\DEBUG\VC141.PDB
^C:\USERS\UNIVERSITY\ONEDRIVE\UNIVERSITY\Y2\S1\COSC1187 - INTERACTIVE 3D GRAPHICS AND ANIMATION\ASSIGNMENTS\EXAMPLE\EXAMPLE\LIGHT.C
C:\USERS\UNIVERSITY\ONEDRIVE\UNIVERSITY\Y2\S1\COSC1187 - INTERACTIVE 3D GRAPHICS AND ANIMATION\ASSIGNMENTS\EXAMPLE\EXAMPLE\DEBUG\VC141.PDB
^C:\USERS\UNIVERSITY\ONEDRIVE\UNIVERSITY\Y2\S1\COSC1187 - INTERACTIVE 3D GRAPHICS AND ANIMATION\ASSIGNMENTS\EXAMPLE\EXAMPLE\MAIN.C
C:\USERS\UNIVERSITY\ONEDRIVE\UNIVERSITY\Y2\S1\COSC1187 - INTERACTIVE 3D GRAPHICS AND ANIMATION\ASSIGNMENTS\EXAMPLE\EXAMPLE\DEBUG\VC141.PDB
C:\USERS\UNIVERSITY\ONEDRIVE\UNIVERSITY\Y2\S1\COSC1187 - INTERACTIVE 3D GRAPHICS AND ANIMATION\ASSIGNMENTS\EXAMPLE\EXAMPLE\DEBUG\VC141.IDB
C:\USERS\UNIVERSITY\ONEDRIVE\UNIVERSITY\Y2\S1\COSC1187 - INTERACTIVE 3D GRAPHICS AND ANIMATION\ASSIGNMENTS\EXAMPLE\EXAMPLE\DEBUG\MAIN.OBJ
^C:\USERS\UNIVERSITY\ONEDRIVE\UNIVERSITY\Y2\S1\COSC1187 - INTERACTIVE 3D GRAPHICS AND ANIMATION\ASSIGNMENTS\EXAMPLE\EXAMPLE\MATERIAL.C
C:\USERS\UNIVERSITY\ONEDRIVE\UNIVERSITY\Y2\S1\COSC1187 - INTERACTIVE 3D GRAPHICS AND ANIMATION\ASSIGNMENTS\EXAMPLE\EXAMPLE\DEBUG\VC141.PDB
^C:\USERS\UNIVERSITY\ONEDRIVE\UNIVERSITY\Y2\S1\COSC1187 - INTERACTIVE 3D GRAPHICS AND ANIMATION\ASSIGNMENTS\EXAMPLE\EXAMPLE\MESH.C
C:\USERS\UNIVERSITY\ONEDRIVE\UNIVERSITY\Y2\S1\COSC1187 - INTERACTIVE 3D GRAPHICS AND ANIMATION\ASSIGNMENTS\EXAMPLE\EXAMPLE\DEBUG\VC141.PDB
^C:\USERS\UNIVERSITY\ONEDRIVE\UNIVERSITY\Y2\S1\COSC1187 - INTERACTIVE 3D GRAPHICS AND ANIMATION\ASSIGNMENTS\EXAMPLE\EXAMPLE\PARABOLA.C
C:\USERS\UNIVERSITY\ONEDRIVE\UNIVERSITY\Y2\S1\COSC1187 - INTERACTIVE 3D GRAPHICS AND ANIMATION\ASSIGNMENTS\EXAMPLE\EXAMPLE\DEBUG\VC141.PDB
^C:\USERS\UNIVERSITY\ONEDRIVE\UNIVERSITY\Y2\S1\COSC1187 - INTERACTIVE 3D GRAPHICS AND ANIMATION\ASSIGNMENTS\EXAMPLE\EXAMPLE\PLAYER.C
C:\USERS\UNIVERSITY\ONEDRIVE\UNIVERSITY\Y2\S1\COSC1187 - INTERACTIVE 3D GRAPHICS AND ANIMATION\ASSIGNMENTS\EXAMPLE\EXAMPLE\DEBUG\VC141.PDB
^C:\USERS\UNIVERSITY\ONEDRIVE\UNIVERSITY\Y2\S1\COSC1187 - INTERACTIVE 3D GRAPHICS AND ANIMATION\ASSIGNMENTS\EXAMPLE\EXAMPLE\RIVER.C
C:\USERS\UNIVERSITY\ONEDRIVE\UNIVERSITY\Y2\S1\COSC1187 - INTERACTIVE 3D GRAPHICS AND ANIMATION\ASSIGNMENTS\EXAMPLE\EXAMPLE\DEBUG\VC141.PDB
^C:\USERS\UNIVERSITY\ONEDRIVE\UNIVERSITY\Y2\S1\COSC1187 - INTERACTIVE 3D GRAPHICS AND ANIMATION\ASSIGNMENTS\EXAMPLE\EXAMPLE\ROAD.C
C:\USERS\UNIVERSITY\ONEDRIVE\UNIVERSITY\Y2\S1\COSC1187 - INTERACTIVE 3D GRAPHICS AND ANIMATION\ASSIGNMENTS\EXAMPLE\EXAMPLE\DEBUG\VC141.PDB
^C:\USERS\UNIVERSITY\ONEDRIVE\UNIVERSITY\Y2\S1\COSC1187 - INTERACTIVE 3D GRAPHICS AND ANIMATION\ASSIGNMENTS\EXAMPLE\EXAMPLE\TERRAIN.C
C:\USERS\UNIVERSITY\ONEDRIVE\UNIVERSITY\Y2\S1\COSC1187 - INTERACTIVE 3D GRAPHICS AND ANIMATION\ASSIGNMENTS\EXAMPLE\EXAMPLE\DEBUG\VC141.PDB
^C:\USERS\UNIVERSITY\ONEDRIVE\UNIVERSITY\Y2\S1\COSC1187 - INTERACTIVE 3D GRAPHICS AND ANIMATION\ASSIGNMENTS\EXAMPLE\EXAMPLE\UTILS.C
C:\USERS\UNIVERSITY\ONEDRIVE\UNIVERSITY\Y2\S1\COSC1187 - INTERACTIVE 3D GRAPHICS AND ANIMATION\ASSIGNMENTS\EXAMPLE\EXAMPLE\DEBUG\VC141.PDB
^C:\USERS\UNIVERSITY\ONEDRIVE\UNIVERSITY\Y2\S1\COSC1187 - INTERACTIVE 3D GRAPHICS AND ANIMATION\ASSIGNMENTS\EXAMPLE\EXAMPLE\GLOBALS.C|C:\USERS\UNIVERSITY\ONEDRIVE\UNIVERSITY\Y2\S1\COSC1187 - INTERACTIVE 3D GRAPHICS AND ANIMATION\ASSIGNMENTS\EXAMPLE\EXAMPLE\MAIN.C|C:\USERS\UNIVERSITY\ONEDRIVE\UNIVERSITY\Y2\S1\COSC1187 - INTERACTIVE 3D GRAPHICS AND ANIMATION\ASSIGNMENTS\EXAMPLE\EXAMPLE\MATERIAL.C
C:\USERS\UNIVERSITY\ONEDRIVE\UNIVERSITY\Y2\S1\COSC1187 - INTERACTIVE 3D GRAPHICS AND ANIMATION\ASSIGNMENTS\EXAMPLE\EXAMPLE\DEBUG\VC141.PDB
C:\USERS\UNIVERSITY\ONEDRIVE\UNIVERSITY\Y2\S1\COSC1187 - INTERACTIVE 3D GRAPHICS AND ANIMATION\ASSIGNMENTS\EXAMPLE\EXAMPLE\DEBUG\VC141.IDB
C:\USERS\UNIVERSITY\ONEDRIVE\UNIVERSITY\Y2\S1\COSC1187 - INTERACTIVE 3D GRAPHICS AND ANIMATION\ASSIGNMENTS\EXAMPLE\EXAMPLE\DEBUG\GLOBALS.OBJ
C:\USERS\UNIVERSITY\ONEDRIVE\UNIVERSITY\Y2\S1\COSC1187 - INTERACTIVE 3D GRAPHICS AND ANIMATION\ASSIGNMENTS\EXAMPLE\EXAMPLE\DEBUG\MAIN.OBJ
C:\USERS\UNIVERSITY\ONEDRIVE\UNIVERSITY\Y2\S1\COSC1187 - INTERACTIVE 3D GRAPHICS AND ANIMATION\ASSIGNMENTS\EXAMPLE\EXAMPLE\DEBUG\MATERIAL.OBJ
^C:\USERS\UNIVERSITY\ONEDRIVE\UNIVERSITY\Y2\S1\COSC1187 - INTERACTIVE 3D GRAPHICS AND ANIMATION\ASSIGNMENTS\EXAMPLE\EXAMPLE\GLOBALS.C|C:\USERS\UNIVERSITY\ONEDRIVE\UNIVERSITY\Y2\S1\COSC1187 - INTERACTIVE 3D GRAPHICS AND ANIMATION\ASSIGNMENTS\EXAMPLE\EXAMPLE\MATERIAL.C
C:\USERS\UNIVERSITY\ONEDRIVE\UNIVERSITY\Y2\S1\COSC1187 - INTERACTIVE 3D GRAPHICS AND ANIMATION\ASSIGNMENTS\EXAMPLE\EXAMPLE\DEBUG\VC141.PDB
C:\USERS\UNIVERSITY\ONEDRIVE\UNIVERSITY\Y2\S1\COSC1187 - INTERACTIVE 3D GRAPHICS AND ANIMATION\ASSIGNMENTS\EXAMPLE\EXAMPLE\DEBUG\VC141.IDB
C:\USERS\UNIVERSITY\ONEDRIVE\UNIVERSITY\Y2\S1\COSC1187 - INTERACTIVE 3D GRAPHICS AND ANIMATION\ASSIGNMENTS\EXAMPLE\EXAMPLE\DEBUG\GLOBALS.OBJ
C:\USERS\UNIVERSITY\ONEDRIVE\UNIVERSITY\Y2\S1\COSC1187 - INTERACTIVE 3D GRAPHICS AND ANIMATION\ASSIGNMENTS\EXAMPLE\EXAMPLE\DEBUG\MATERIAL.OBJ
^C:\USERS\UNIVERSITY\ONEDRIVE\UNIVERSITY\Y2\S1\COSC1187 - INTERACTIVE 3D GRAPHICS AND ANIMATION\ASSIGNMENTS\EXAMPLE\EXAMPLE\SOURCES\GLOBALS.C|C:\USERS\UNIVERSITY\ONEDRIVE\UNIVERSITY\Y2\S1\COSC1187 - INTERACTIVE 3D GRAPHICS AND ANIMATION\ASSIGNMENTS\EXAMPLE\EXAMPLE\SOURCES\MAIN.C|C:\USERS\UNIVERSITY\ONEDRIVE\UNIVERSITY\Y2\S1\COSC1187 - INTERACTIVE 3D GRAPHICS AND ANIMATION\ASSIGNMENTS\EXAMPLE\EXAMPLE\SOURCES\TERRAIN.C
C:\USERS\UNIVERSITY\ONEDRIVE\UNIVERSITY\Y2\S1\COSC1187 - INTERACTIVE 3D GRAPHICS AND ANIMATION\ASSIGNMENTS\EXAMPLE\EXAMPLE\DEBUG\VC141.PDB
C:\USERS\UNIVERSITY\ONEDRIVE\UNIVERSITY\Y2\S1\COSC1187 - INTERACTIVE 3D GRAPHICS AND ANIMATION\ASSIGNMENTS\EXAMPLE\EXAMPLE\DEBUG\VC141.IDB
C:\USERS\UNIVERSITY\ONEDRIVE\UNIVERSITY\Y2\S1\COSC1187 - INTERACTIVE 3D GRAPHICS AND ANIMATION\ASSIGNMENTS\EXAMPLE\EXAMPLE\DEBUG\MAIN.OBJ
C:\USERS\UNIVERSITY\ONEDRIVE\UNIVERSITY\Y2\S1\COSC1187 - INTERACTIVE 3D GRAPHICS AND ANIMATION\ASSIGNMENTS\EXAMPLE\EXAMPLE\DEBUG\GLOBALS.OBJ
C:\USERS\UNIVERSITY\ONEDRIVE\UNIVERSITY\Y2\S1\COSC1187 - INTERACTIVE 3D GRAPHICS AND ANIMATION\ASSIGNMENTS\EXAMPLE\EXAMPLE\DEBUG\TERRAIN.OBJ
^C:\USERS\UNIVERSITY\ONEDRIVE\UNIVERSITY\Y2\S1\COSC1187 - INTERACTIVE 3D GRAPHICS AND ANIMATION\ASSIGNMENTS\EXAMPLE\EXAMPLE\SOURCES\GLOBALS.C|C:\USERS\UNIVERSITY\ONEDRIVE\UNIVERSITY\Y2\S1\COSC1187 - INTERACTIVE 3D GRAPHICS AND ANIMATION\ASSIGNMENTS\EXAMPLE\EXAMPLE\SOURCES\MAIN.C|C:\USERS\UNIVERSITY\ONEDRIVE\UNIVERSITY\Y2\S1\COSC1187 - INTERACTIVE 3D GRAPHICS AND ANIMATION\ASSIGNMENTS\EXAMPLE\EXAMPLE\SOURCES\ROAD.C
C:\USERS\UNIVERSITY\ONEDRIVE\UNIVERSITY\Y2\S1\COSC1187 - INTERACTIVE 3D GRAPHICS AND ANIMATION\ASSIGNMENTS\EXAMPLE\EXAMPLE\DEBUG\VC141.PDB
C:\USERS\UNIVERSITY\ONEDRIVE\UNIVERSITY\Y2\S1\COSC1187 - INTERACTIVE 3D GRAPHICS AND ANIMATION\ASSIGNMENTS\EXAMPLE\EXAMPLE\DEBUG\VC141.IDB
C:\USERS\UNIVERSITY\ONEDRIVE\UNIVERSITY\Y2\S1\COSC1187 - INTERACTIVE 3D GRAPHICS AND ANIMATION\ASSIGNMENTS\EXAMPLE\EXAMPLE\DEBUG\GLOBALS.OBJ
C:\USERS\UNIVERSITY\ONEDRIVE\UNIVERSITY\Y2\S1\COSC1187 - INTERACTIVE 3D GRAPHICS AND ANIMATION\ASSIGNMENTS\EXAMPLE\EXAMPLE\DEBUG\MAIN.OBJ
C:\USERS\UNIVERSITY\ONEDRIVE\UNIVERSITY\Y2\S1\COSC1187 - INTERACTIVE 3D GRAPHICS AND ANIMATION\ASSIGNMENTS\EXAMPLE\EXAMPLE\DEBUG\ROAD.OBJ
^C:\USERS\UNIVERSITY\ONEDRIVE\UNIVERSITY\Y2\S1\COSC1187 - INTERACTIVE 3D GRAPHICS AND ANIMATION\ASSIGNMENTS\EXAMPLE\EXAMPLE\SOURCES\RIVER.C|C:\USERS\UNIVERSITY\ONEDRIVE\UNIVERSITY\Y2\S1\COSC1187 - INTERACTIVE 3D GRAPHICS AND ANIMATION\ASSIGNMENTS\EXAMPLE\EXAMPLE\SOURCES\ROAD.C
C:\USERS\UNIVERSITY\ONEDRIVE\UNIVERSITY\Y2\S1\COSC1187 - INTERACTIVE 3D GRAPHICS AND ANIMATION\ASSIGNMENTS\EXAMPLE\EXAMPLE\DEBUG\VC141.PDB
C:\USERS\UNIVERSITY\ONEDRIVE\UNIVERSITY\Y2\S1\COSC1187 - INTERACTIVE 3D GRAPHICS AND ANIMATION\ASSIGNMENTS\EXAMPLE\EXAMPLE\DEBUG\VC141.IDB
C:\USERS\UNIVERSITY\ONEDRIVE\UNIVERSITY\Y2\S1\COSC1187 - INTERACTIVE 3D GRAPHICS AND ANIMATION\ASSIGNMENTS\EXAMPLE\EXAMPLE\DEBUG\RIVER.OBJ
C:\USERS\UNIVERSITY\ONEDRIVE\UNIVERSITY\Y2\S1\COSC1187 - INTERACTIVE 3D GRAPHICS AND ANIMATION\ASSIGNMENTS\EXAMPLE\EXAMPLE\DEBUG\ROAD.OBJ
^C:\USERS\UNIVERSITY\ONEDRIVE\UNIVERSITY\Y2\S1\COSC1187 - INTERACTIVE 3D GRAPHICS AND ANIMATION\ASSIGNMENTS\EXAMPLE\EXAMPLE\SOURCES\CARS.C|C:\USERS\UNIVERSITY\ONEDRIVE\UNIVERSITY\Y2\S1\COSC1187 - INTERACTIVE 3D GRAPHICS AND ANIMATION\ASSIGNMENTS\EXAMPLE\EXAMPLE\SOURCES\GLOBALS.C|C:\USERS\UNIVERSITY\ONEDRIVE\UNIVERSITY\Y2\S1\COSC1187 - INTERACTIVE 3D GRAPHICS AND ANIMATION\ASSIGNMENTS\EXAMPLE\EXAMPLE\SOURCES\LOGS.C|C:\USERS\UNIVERSITY\ONEDRIVE\UNIVERSITY\Y2\S1\COSC1187 - INTERACTIVE 3D GRAPHICS AND ANIMATION\ASSIGNMENTS\EXAMPLE\EXAMPLE\SOURCES\MAIN.C
C:\USERS\UNIVERSITY\ONEDRIVE\UNIVERSITY\Y2\S1\COSC1187 - INTERACTIVE 3D GRAPHICS AND ANIMATION\ASSIGNMENTS\EXAMPLE\EXAMPLE\DEBUG\VC141.PDB
C:\USERS\UNIVERSITY\ONEDRIVE\UNIVERSITY\Y2\S1\COSC1187 - INTERACTIVE 3D GRAPHICS AND ANIMATION\ASSIGNMENTS\EXAMPLE\EXAMPLE\DEBUG\VC141.IDB
C:\USERS\UNIVERSITY\ONEDRIVE\UNIVERSITY\Y2\S1\COSC1187 - INTERACTIVE 3D GRAPHICS AND ANIMATION\ASSIGNMENTS\EXAMPLE\EXAMPLE\DEBUG\CARS.OBJ
^C:\USERS\UNIVERSITY\ONEDRIVE\UNIVERSITY\Y2\S1\COSC1187 - INTERACTIVE 3D GRAPHICS AND ANIMATION\ASSIGNMENTS\EXAMPLE\EXAMPLE\SOURCES\LOGS.C
C:\USERS\UNIVERSITY\ONEDRIVE\UNIVERSITY\Y2\S1\COSC1187 - INTERACTIVE 3D GRAPHICS AND ANIMATION\ASSIGNMENTS\EXAMPLE\EXAMPLE\DEBUG\VC141.PDB
^C:\USERS\UNIVERSITY\ONEDRIVE\UNIVERSITY\Y2\S1\COSC1187 - INTERACTIVE 3D GRAPHICS AND ANIMATION\ASSIGNMENTS\EXAMPLE\EXAMPLE\SOURCES\CARS.C
C:\USERS\UNIVERSITY\ONEDRIVE\UNIVERSITY\Y2\S1\COSC1187 - INTERACTIVE 3D GRAPHICS AND ANIMATION\ASSIGNMENTS\EXAMPLE\EXAMPLE\DEBUG\VC141.PDB
C:\USERS\UNIVERSITY\ONEDRIVE\UNIVERSITY\Y2\S1\COSC1187 - INTERACTIVE 3D GRAPHICS AND ANIMATION\ASSIGNMENTS\EXAMPLE\EXAMPLE\DEBUG\VC141.IDB
C:\USERS\UNIVERSITY\ONEDRIVE\UNIVERSITY\Y2\S1\COSC1187 - INTERACTIVE 3D GRAPHICS AND ANIMATION\ASSIGNMENTS\EXAMPLE\EXAMPLE\DEBUG\CARS.OBJ
^C:\USERS\UNIVERSITY\ONEDRIVE\UNIVERSITY\Y2\S1\COSC1187 - INTERACTIVE 3D GRAPHICS AND ANIMATION\ASSIGNMENTS\EXAMPLE\EXAMPLE\SOURCES\GLOBALS.C|C:\USERS\UNIVERSITY\ONEDRIVE\UNIVERSITY\Y2\S1\COSC1187 - INTERACTIVE 3D GRAPHICS AND ANIMATION\ASSIGNMENTS\EXAMPLE\EXAMPLE\SOURCES\LOGS.C|C:\USERS\UNIVERSITY\ONEDRIVE\UNIVERSITY\Y2\S1\COSC1187 - INTERACTIVE 3D GRAPHICS AND ANIMATION\ASSIGNMENTS\EXAMPLE\EXAMPLE\SOURCES\MAIN.C
C:\USERS\UNIVERSITY\ONEDRIVE\UNIVERSITY\Y2\S1\COSC1187 - INTERACTIVE 3D GRAPHICS AND ANIMATION\ASSIGNMENTS\EXAMPLE\EXAMPLE\DEBUG\VC141.PDB
C:\USERS\UNIVERSITY\ONEDRIVE\UNIVERSITY\Y2\S1\COSC1187 - INTERACTIVE 3D GRAPHICS AND ANIMATION\ASSIGNMENTS\EXAMPLE\EXAMPLE\DEBUG\VC141.IDB
C:\USERS\UNIVERSITY\ONEDRIVE\UNIVERSITY\Y2\S1\COSC1187 - INTERACTIVE 3D GRAPHICS AND ANIMATION\ASSIGNMENTS\EXAMPLE\EXAMPLE\DEBUG\LOGS.OBJ
C:\USERS\UNIVERSITY\ONEDRIVE\UNIVERSITY\Y2\S1\COSC1187 - INTERACTIVE 3D GRAPHICS AND ANIMATION\ASSIGNMENTS\EXAMPLE\EXAMPLE\DEBUG\GLOBALS.OBJ
C:\USERS\UNIVERSITY\ONEDRIVE\UNIVERSITY\Y2\S1\COSC1187 - INTERACTIVE 3D GRAPHICS AND ANIMATION\ASSIGNMENTS\EXAMPLE\EXAMPLE\DEBUG\MAIN.OBJ
^C:\USERS\UNIVERSITY\ONEDRIVE\UNIVERSITY\Y2\S1\COSC1187 - INTERACTIVE 3D GRAPHICS AND ANIMATION\ASSIGNMENTS\EXAMPLE\EXAMPLE\SOURCES\GLOBALS.C|C:\USERS\UNIVERSITY\ONEDRIVE\UNIVERSITY\Y2\S1\COSC1187 - INTERACTIVE 3D GRAPHICS AND ANIMATION\ASSIGNMENTS\EXAMPLE\EXAMPLE\SOURCES\MAIN.C
C:\USERS\UNIVERSITY\ONEDRIVE\UNIVERSITY\Y2\S1\COSC1187 - INTERACTIVE 3D GRAPHICS AND ANIMATION\ASSIGNMENTS\EXAMPLE\EXAMPLE\DEBUG\VC141.PDB
C:\USERS\UNIVERSITY\ONEDRIVE\UNIVERSITY\Y2\S1\COSC1187 - INTERACTIVE 3D GRAPHICS AND ANIMATION\ASSIGNMENTS\EXAMPLE\EXAMPLE\DEBUG\VC141.IDB
C:\USERS\UNIVERSITY\ONEDRIVE\UNIVERSITY\Y2\S1\COSC1187 - INTERACTIVE 3D GRAPHICS AND ANIMATION\ASSIGNMENTS\EXAMPLE\EXAMPLE\DEBUG\GLOBALS.OBJ
C:\USERS\UNIVERSITY\ONEDRIVE\UNIVERSITY\Y2\S1\COSC1187 - INTERACTIVE 3D GRAPHICS AND ANIMATION\ASSIGNMENTS\EXAMPLE\EXAMPLE\DEBUG\MAIN.OBJ
^C:\USERS\UNIVERSITY\ONEDRIVE\UNIVERSITY\Y2\S1\COSC1187 - INTERACTIVE 3D GRAPHICS AND ANIMATION\ASSIGNMENTS\EXAMPLE\EXAMPLE\SOURCES\ROAD.C|C:\USERS\UNIVERSITY\ONEDRIVE\UNIVERSITY\Y2\S1\COSC1187 - INTERACTIVE 3D GRAPHICS AND ANIMATION\ASSIGNMENTS\EXAMPLE\EXAMPLE\SOURCES\TERRAIN.C
C:\USERS\UNIVERSITY\ONEDRIVE\UNIVERSITY\Y2\S1\COSC1187 - INTERACTIVE 3D GRAPHICS AND ANIMATION\ASSIGNMENTS\EXAMPLE\EXAMPLE\DEBUG\VC141.PDB
C:\USERS\UNIVERSITY\ONEDRIVE\UNIVERSITY\Y2\S1\COSC1187 - INTERACTIVE 3D GRAPHICS AND ANIMATION\ASSIGNMENTS\EXAMPLE\EXAMPLE\DEBUG\VC141.IDB
C:\USERS\UNIVERSITY\ONEDRIVE\UNIVERSITY\Y2\S1\COSC1187 - INTERACTIVE 3D GRAPHICS AND ANIMATION\ASSIGNMENTS\EXAMPLE\EXAMPLE\DEBUG\ROAD.OBJ
C:\USERS\UNIVERSITY\ONEDRIVE\UNIVERSITY\Y2\S1\COSC1187 - INTERACTIVE 3D GRAPHICS AND ANIMATION\ASSIGNMENTS\EXAMPLE\EXAMPLE\DEBUG\TERRAIN.OBJ
^C:\USERS\UNIVERSITY\ONEDRIVE\UNIVERSITY\Y2\S1\COSC1187 - INTERACTIVE 3D GRAPHICS AND ANIMATION\ASSIGNMENTS\EXAMPLE\EXAMPLE\SOURCES\GLOBALS.C|C:\USERS\UNIVERSITY\ONEDRIVE\UNIVERSITY\Y2\S1\COSC1187 - INTERACTIVE 3D GRAPHICS AND ANIMATION\ASSIGNMENTS\EXAMPLE\EXAMPLE\SOURCES\MAIN.C|C:\USERS\UNIVERSITY\ONEDRIVE\UNIVERSITY\Y2\S1\COSC1187 - INTERACTIVE 3D GRAPHICS AND ANIMATION\ASSIGNMENTS\EXAMPLE\EXAMPLE\SOURCES\MESH.C|C:\USERS\UNIVERSITY\ONEDRIVE\UNIVERSITY\Y2\S1\COSC1187 - INTERACTIVE 3D GRAPHICS AND ANIMATION\ASSIGNMENTS\EXAMPLE\EXAMPLE\SOURCES\RIVER.C
C:\USERS\UNIVERSITY\ONEDRIVE\UNIVERSITY\Y2\S1\COSC1187 - INTERACTIVE 3D GRAPHICS AND ANIMATION\ASSIGNMENTS\EXAMPLE\EXAMPLE\DEBUG\VC141.PDB
C:\USERS\UNIVERSITY\ONEDRIVE\UNIVERSITY\Y2\S1\COSC1187 - INTERACTIVE 3D GRAPHICS AND ANIMATION\ASSIGNMENTS\EXAMPLE\EXAMPLE\DEBUG\VC141.IDB
C:\USERS\UNIVERSITY\ONEDRIVE\UNIVERSITY\Y2\S1\COSC1187 - INTERACTIVE 3D GRAPHICS AND ANIMATION\ASSIGNMENTS\EXAMPLE\EXAMPLE\DEBUG\GLOBALS.OBJ
C:\USERS\UNIVERSITY\ONEDRIVE\UNIVERSITY\Y2\S1\COSC1187 - INTERACTIVE 3D GRAPHICS AND ANIMATION\ASSIGNMENTS\EXAMPLE\EXAMPLE\DEBUG\MAIN.OBJ
C:\USERS\UNIVERSITY\ONEDRIVE\UNIVERSITY\Y2\S1\COSC1187 - INTERACTIVE 3D GRAPHICS AND ANIMATION\ASSIGNMENTS\EXAMPLE\EXAMPLE\DEBUG\MESH.OBJ
C:\USERS\UNIVERSITY\ONEDRIVE\UNIVERSITY\Y2\S1\COSC1187 - INTERACTIVE 3D GRAPHICS AND ANIMATION\ASSIGNMENTS\EXAMPLE\EXAMPLE\DEBUG\RIVER.OBJ
^C:\USERS\UNIVERSITY\ONEDRIVE\UNIVERSITY\Y2\S1\COSC1187 - INTERACTIVE 3D GRAPHICS AND ANIMATION\ASSIGNMENTS\EXAMPLE\EXAMPLE\SOURCES\GLOBALS.C|C:\USERS\UNIVERSITY\ONEDRIVE\UNIVERSITY\Y2\S1\COSC1187 - INTERACTIVE 3D GRAPHICS AND ANIMATION\ASSIGNMENTS\EXAMPLE\EXAMPLE\SOURCES\MAIN.C|C:\USERS\UNIVERSITY\ONEDRIVE\UNIVERSITY\Y2\S1\COSC1187 - INTERACTIVE 3D GRAPHICS AND ANIMATION\ASSIGNMENTS\EXAMPLE\EXAMPLE\SOURCES\RIVER.C
C:\USERS\UNIVERSITY\ONEDRIVE\UNIVERSITY\Y2\S1\COSC1187 - INTERACTIVE 3D GRAPHICS AND ANIMATION\ASSIGNMENTS\EXAMPLE\EXAMPLE\DEBUG\VC141.PDB
C:\USERS\UNIVERSITY\ONEDRIVE\UNIVERSITY\Y2\S1\COSC1187 - INTERACTIVE 3D GRAPHICS AND ANIMATION\ASSIGNMENTS\EXAMPLE\EXAMPLE\DEBUG\VC141.IDB
C:\USERS\UNIVERSITY\ONEDRIVE\UNIVERSITY\Y2\S1\COSC1187 - INTERACTIVE 3D GRAPHICS AND ANIMATION\ASSIGNMENTS\EXAMPLE\EXAMPLE\DEBUG\GLOBALS.OBJ
C:\USERS\UNIVERSITY\ONEDRIVE\UNIVERSITY\Y2\S1\COSC1187 - INTERACTIVE 3D GRAPHICS AND ANIMATION\ASSIGNMENTS\EXAMPLE\EXAMPLE\DEBUG\MAIN.OBJ
C:\USERS\UNIVERSITY\ONEDRIVE\UNIVERSITY\Y2\S1\COSC1187 - INTERACTIVE 3D GRAPHICS AND ANIMATION\ASSIGNMENTS\EXAMPLE\EXAMPLE\DEBUG\RIVER.OBJ
^C:\USERS\UNIVERSITY\ONEDRIVE\UNIVERSITY\Y2\S1\COSC1187 - INTERACTIVE 3D GRAPHICS AND ANIMATION\ASSIGNMENTS\EXAMPLE\EXAMPLE\SOURCES\CARS.C|C:\USERS\UNIVERSITY\ONEDRIVE\UNIVERSITY\Y2\S1\COSC1187 - INTERACTIVE 3D GRAPHICS AND ANIMATION\ASSIGNMENTS\EXAMPLE\EXAMPLE\SOURCES\GLOBALS.C
C:\USERS\UNIVERSITY\ONEDRIVE\UNIVERSITY\Y2\S1\COSC1187 - INTERACTIVE 3D GRAPHICS AND ANIMATION\ASSIGNMENTS\EXAMPLE\EXAMPLE\DEBUG\VC141.PDB
C:\USERS\UNIVERSITY\ONEDRIVE\UNIVERSITY\Y2\S1\COSC1187 - INTERACTIVE 3D GRAPHICS AND ANIMATION\ASSIGNMENTS\EXAMPLE\EXAMPLE\DEBUG\VC141.IDB
C:\USERS\UNIVERSITY\ONEDRIVE\UNIVERSITY\Y2\S1\COSC1187 - INTERACTIVE 3D GRAPHICS AND ANIMATION\ASSIGNMENTS\EXAMPLE\EXAMPLE\DEBUG\CARS.OBJ
C:\USERS\UNIVERSITY\ONEDRIVE\UNIVERSITY\Y2\S1\COSC1187 - INTERACTIVE 3D GRAPHICS AND ANIMATION\ASSIGNMENTS\EXAMPLE\EXAMPLE\DEBUG\GLOBALS.OBJ
^C:\USERS\RADAR\ONEDRIVE\UNIVERSITY\Y2\S1\COSC1187 - INTERACTIVE 3D GRAPHICS AND ANIMATION\ASSIGNMENTS\EXAMPLE\EXAMPLE\SOURCES\CAMERA.C|C:\USERS\RADAR\ONEDRIVE\UNIVERSITY\Y2\S1\COSC1187 - INTERACTIVE 3D GRAPHICS AND ANIMATION\ASSIGNMENTS\EXAMPLE\EXAMPLE\SOURCES\CARS.C|C:\USERS\RADAR\ONEDRIVE\UNIVERSITY\Y2\S1\COSC1187 - INTERACTIVE 3D GRAPHICS AND ANIMATION\ASSIGNMENTS\EXAMPLE\EXAMPLE\SOURCES\CONTROLS.C|C:\USERS\RADAR\ONEDRIVE\UNIVERSITY\Y2\S1\COSC1187 - INTERACTIVE 3D GRAPHICS AND ANIMATION\ASSIGNMENTS\EXAMPLE\EXAMPLE\SOURCES\GL.C|C:\USERS\RADAR\ONEDRIVE\UNIVERSITY\Y2\S1\COSC1187 - INTERACTIVE 3D GRAPHICS AND ANIMATION\ASSIGNMENTS\EXAMPLE\EXAMPLE\SOURCES\GLOBALS.C|C:\USERS\RADAR\ONEDRIVE\UNIVERSITY\Y2\S1\COSC1187 - INTERACTIVE 3D GRAPHICS AND ANIMATION\ASSIGNMENTS\EXAMPLE\EXAMPLE\SOURCES\LIGHT.C|C:\USERS\RADAR\ONEDRIVE\UNIVERSITY\Y2\S1\COSC1187 - INTERACTIVE 3D GRAPHICS AND ANIMATION\ASSIGNMENTS\EXAMPLE\EXAMPLE\SOURCES\LOGS.C|C:\USERS\RADAR\ONEDRIVE\UNIVERSITY\Y2\S1\COSC1187 - INTERACTIVE 3D GRAPHICS AND ANIMATION\ASSIGNMENTS\EXAMPLE\EXAMPLE\SOURCES\MAIN.C|C:\USERS\RADAR\ONEDRIVE\UNIVERSITY\Y2\S1\COSC1187 - INTERACTIVE 3D GRAPHICS AND ANIMATION\ASSIGNMENTS\EXAMPLE\EXAMPLE\SOURCES\MATERIAL.C|C:\USERS\RADAR\ONEDRIVE\UNIVERSITY\Y2\S1\COSC1187 - INTERACTIVE 3D GRAPHICS AND ANIMATION\ASSIGNMENTS\EXAMPLE\EXAMPLE\SOURCES\MESH.C|C:\USERS\RADAR\ONEDRIVE\UNIVERSITY\Y2\S1\COSC1187 - INTERACTIVE 3D GRAPHICS AND ANIMATION\ASSIGNMENTS\EXAMPLE\EXAMPLE\SOURCES\PARABOLA.C|C:\USERS\RADAR\ONEDRIVE\UNIVERSITY\Y2\S1\COSC1187 - INTERACTIVE 3D GRAPHICS AND ANIMATION\ASSIGNMENTS\EXAMPLE\EXAMPLE\SOURCES\PLAYER.C|C:\USERS\RADAR\ONEDRIVE\UNIVERSITY\Y2\S1\COSC1187 - INTERACTIVE 3D GRAPHICS AND ANIMATION\ASSIGNMENTS\EXAMPLE\EXAMPLE\SOURCES\RIVER.C|C:\USERS\RADAR\ONEDRIVE\UNIVERSITY\Y2\S1\COSC1187 - INTERACTIVE 3D GRAPHICS AND ANIMATION\ASSIGNMENTS\EXAMPLE\EXAMPLE\SOURCES\ROAD.C|C:\USERS\RADAR\ONEDRIVE\UNIVERSITY\Y2\S1\COSC1187 - INTERACTIVE 3D GRAPHICS AND ANIMATION\ASSIGNMENTS\EXAMPLE\EXAMPLE\SOURCES\TERRAIN.C|C:\USERS\RADAR\ONEDRIVE\UNIVERSITY\Y2\S1\COSC1187 - INTERACTIVE 3D GRAPHICS AND ANIMATION\ASSIGNMENTS\EXAMPLE\EXAMPLE\SOURCES\UTILS.C
C:\USERS\RADAR\ONEDRIVE\UNIVERSITY\Y2\S1\COSC1187 - INTERACTIVE 3D GRAPHICS AND ANIMATION\ASSIGNMENTS\EXAMPLE\EXAMPLE\DEBUG\VC141.PDB
C:\USERS\RADAR\ONEDRIVE\UNIVERSITY\Y2\S1\COSC1187 - INTERACTIVE 3D GRAPHICS AND ANIMATION\ASSIGNMENTS\EXAMPLE\EXAMPLE\DEBUG\VC141.IDB
C:\USERS\RADAR\ONEDRIVE\UNIVERSITY\Y2\S1\COSC1187 - INTERACTIVE 3D GRAPHICS AND ANIMATION\ASSIGNMENTS\EXAMPLE\EXAMPLE\DEBUG\CAMERA.OBJ
C:\USERS\RADAR\ONEDRIVE\UNIVERSITY\Y2\S1\COSC1187 - INTERACTIVE 3D GRAPHICS AND ANIMATION\ASSIGNMENTS\EXAMPLE\EXAMPLE\DEBUG\CONTROLS.OBJ
C:\USERS\RADAR\ONEDRIVE\UNIVERSITY\Y2\S1\COSC1187 - INTERACTIVE 3D GRAPHICS AND ANIMATION\ASSIGNMENTS\EXAMPLE\EXAMPLE\DEBUG\GL.OBJ
C:\USERS\RADAR\ONEDRIVE\UNIVERSITY\Y2\S1\COSC1187 - INTERACTIVE 3D GRAPHICS AND ANIMATION\ASSIGNMENTS\EXAMPLE\EXAMPLE\DEBUG\GLOBALS.OBJ
C:\USERS\RADAR\ONEDRIVE\UNIVERSITY\Y2\S1\COSC1187 - INTERACTIVE 3D GRAPHICS AND ANIMATION\ASSIGNMENTS\EXAMPLE\EXAMPLE\DEBUG\LIGHT.OBJ
C:\USERS\RADAR\ONEDRIVE\UNIVERSITY\Y2\S1\COSC1187 - INTERACTIVE 3D GRAPHICS AND ANIMATION\ASSIGNMENTS\EXAMPLE\EXAMPLE\DEBUG\MAIN.OBJ
C:\USERS\RADAR\ONEDRIVE\UNIVERSITY\Y2\S1\COSC1187 - INTERACTIVE 3D GRAPHICS AND ANIMATION\ASSIGNMENTS\EXAMPLE\EXAMPLE\DEBUG\MATERIAL.OBJ
C:\USERS\RADAR\ONEDRIVE\UNIVERSITY\Y2\S1\COSC1187 - INTERACTIVE 3D GRAPHICS AND ANIMATION\ASSIGNMENTS\EXAMPLE\EXAMPLE\DEBUG\MESH.OBJ
C:\USERS\RADAR\ONEDRIVE\UNIVERSITY\Y2\S1\COSC1187 - INTERACTIVE 3D GRAPHICS AND ANIMATION\ASSIGNMENTS\EXAMPLE\EXAMPLE\DEBUG\PARABOLA.OBJ
C:\USERS\RADAR\ONEDRIVE\UNIVERSITY\Y2\S1\COSC1187 - INTERACTIVE 3D GRAPHICS AND ANIMATION\ASSIGNMENTS\EXAMPLE\EXAMPLE\DEBUG\PLAYER.OBJ
C:\USERS\RADAR\ONEDRIVE\UNIVERSITY\Y2\S1\COSC1187 - INTERACTIVE 3D GRAPHICS AND ANIMATION\ASSIGNMENTS\EXAMPLE\EXAMPLE\DEBUG\LOGS.OBJ
C:\USERS\RADAR\ONEDRIVE\UNIVERSITY\Y2\S1\COSC1187 - INTERACTIVE 3D GRAPHICS AND ANIMATION\ASSIGNMENTS\EXAMPLE\EXAMPLE\DEBUG\CARS.OBJ
C:\USERS\RADAR\ONEDRIVE\UNIVERSITY\Y2\S1\COSC1187 - INTERACTIVE 3D GRAPHICS AND ANIMATION\ASSIGNMENTS\EXAMPLE\EXAMPLE\DEBUG\RIVER.OBJ
C:\USERS\RADAR\ONEDRIVE\UNIVERSITY\Y2\S1\COSC1187 - INTERACTIVE 3D GRAPHICS AND ANIMATION\ASSIGNMENTS\EXAMPLE\EXAMPLE\DEBUG\ROAD.OBJ
C:\USERS\RADAR\ONEDRIVE\UNIVERSITY\Y2\S1\COSC1187 - INTERACTIVE 3D GRAPHICS AND ANIMATION\ASSIGNMENTS\EXAMPLE\EXAMPLE\DEBUG\TERRAIN.OBJ
C:\USERS\RADAR\ONEDRIVE\UNIVERSITY\Y2\S1\COSC1187 - INTERACTIVE 3D GRAPHICS AND ANIMATION\ASSIGNMENTS\EXAMPLE\EXAMPLE\DEBUG\UTILS.OBJ
^C:\USERS\RADAR\ONEDRIVE\UNIVERSITY\Y2\S1\COSC1187 - INTERACTIVE 3D GRAPHICS AND ANIMATION\ASSIGNMENTS\EXAMPLE\EXAMPLE\SOURCES\CAMERA.C
C:\USERS\RADAR\ONEDRIVE\UNIVERSITY\Y2\S1\COSC1187 - INTERACTIVE 3D GRAPHICS AND ANIMATION\ASSIGNMENTS\EXAMPLE\EXAMPLE\DEBUG\VC141.PDB
^C:\USERS\RADAR\ONEDRIVE\UNIVERSITY\Y2\S1\COSC1187 - INTERACTIVE 3D GRAPHICS AND ANIMATION\ASSIGNMENTS\EXAMPLE\EXAMPLE\SOURCES\CONTROLS.C
C:\USERS\RADAR\ONEDRIVE\UNIVERSITY\Y2\S1\COSC1187 - INTERACTIVE 3D GRAPHICS AND ANIMATION\ASSIGNMENTS\EXAMPLE\EXAMPLE\DEBUG\VC141.PDB
^C:\USERS\RADAR\ONEDRIVE\UNIVERSITY\Y2\S1\COSC1187 - INTERACTIVE 3D GRAPHICS AND ANIMATION\ASSIGNMENTS\EXAMPLE\EXAMPLE\SOURCES\GL.C
C:\USERS\RADAR\ONEDRIVE\UNIVERSITY\Y2\S1\COSC1187 - INTERACTIVE 3D GRAPHICS AND ANIMATION\ASSIGNMENTS\EXAMPLE\EXAMPLE\DEBUG\VC141.PDB
^C:\USERS\RADAR\ONEDRIVE\UNIVERSITY\Y2\S1\COSC1187 - INTERACTIVE 3D GRAPHICS AND ANIMATION\ASSIGNMENTS\EXAMPLE\EXAMPLE\SOURCES\GLOBALS.C
C:\USERS\RADAR\ONEDRIVE\UNIVERSITY\Y2\S1\COSC1187 - INTERACTIVE 3D GRAPHICS AND ANIMATION\ASSIGNMENTS\EXAMPLE\EXAMPLE\DEBUG\VC141.PDB
^C:\USERS\RADAR\ONEDRIVE\UNIVERSITY\Y2\S1\COSC1187 - INTERACTIVE 3D GRAPHICS AND ANIMATION\ASSIGNMENTS\EXAMPLE\EXAMPLE\SOURCES\LIGHT.C
C:\USERS\RADAR\ONEDRIVE\UNIVERSITY\Y2\S1\COSC1187 - INTERACTIVE 3D GRAPHICS AND ANIMATION\ASSIGNMENTS\EXAMPLE\EXAMPLE\DEBUG\VC141.PDB
^C:\USERS\RADAR\ONEDRIVE\UNIVERSITY\Y2\S1\COSC1187 - INTERACTIVE 3D GRAPHICS AND ANIMATION\ASSIGNMENTS\EXAMPLE\EXAMPLE\SOURCES\MAIN.C
C:\USERS\RADAR\ONEDRIVE\UNIVERSITY\Y2\S1\COSC1187 - INTERACTIVE 3D GRAPHICS AND ANIMATION\ASSIGNMENTS\EXAMPLE\EXAMPLE\DEBUG\VC141.PDB
^C:\USERS\RADAR\ONEDRIVE\UNIVERSITY\Y2\S1\COSC1187 - INTERACTIVE 3D GRAPHICS AND ANIMATION\ASSIGNMENTS\EXAMPLE\EXAMPLE\SOURCES\MATERIAL.C
C:\USERS\RADAR\ONEDRIVE\UNIVERSITY\Y2\S1\COSC1187 - INTERACTIVE 3D GRAPHICS AND ANIMATION\ASSIGNMENTS\EXAMPLE\EXAMPLE\DEBUG\VC141.PDB
^C:\USERS\RADAR\ONEDRIVE\UNIVERSITY\Y2\S1\COSC1187 - INTERACTIVE 3D GRAPHICS AND ANIMATION\ASSIGNMENTS\EXAMPLE\EXAMPLE\SOURCES\MESH.C
C:\USERS\RADAR\ONEDRIVE\UNIVERSITY\Y2\S1\COSC1187 - INTERACTIVE 3D GRAPHICS AND ANIMATION\ASSIGNMENTS\EXAMPLE\EXAMPLE\DEBUG\VC141.PDB
^C:\USERS\RADAR\ONEDRIVE\UNIVERSITY\Y2\S1\COSC1187 - INTERACTIVE 3D GRAPHICS AND ANIMATION\ASSIGNMENTS\EXAMPLE\EXAMPLE\SOURCES\PARABOLA.C
C:\USERS\RADAR\ONEDRIVE\UNIVERSITY\Y2\S1\COSC1187 - INTERACTIVE 3D GRAPHICS AND ANIMATION\ASSIGNMENTS\EXAMPLE\EXAMPLE\DEBUG\VC141.PDB
^C:\USERS\RADAR\ONEDRIVE\UNIVERSITY\Y2\S1\COSC1187 - INTERACTIVE 3D GRAPHICS AND ANIMATION\ASSIGNMENTS\EXAMPLE\EXAMPLE\SOURCES\PLAYER.C
C:\USERS\RADAR\ONEDRIVE\UNIVERSITY\Y2\S1\COSC1187 - INTERACTIVE 3D GRAPHICS AND ANIMATION\ASSIGNMENTS\EXAMPLE\EXAMPLE\DEBUG\VC141.PDB
^C:\USERS\RADAR\ONEDRIVE\UNIVERSITY\Y2\S1\COSC1187 - INTERACTIVE 3D GRAPHICS AND ANIMATION\ASSIGNMENTS\EXAMPLE\EXAMPLE\SOURCES\LOGS.C
C:\USERS\RADAR\ONEDRIVE\UNIVERSITY\Y2\S1\COSC1187 - INTERACTIVE 3D GRAPHICS AND ANIMATION\ASSIGNMENTS\EXAMPLE\EXAMPLE\DEBUG\VC141.PDB
^C:\USERS\RADAR\ONEDRIVE\UNIVERSITY\Y2\S1\COSC1187 - INTERACTIVE 3D GRAPHICS AND ANIMATION\ASSIGNMENTS\EXAMPLE\EXAMPLE\SOURCES\CARS.C
C:\USERS\RADAR\ONEDRIVE\UNIVERSITY\Y2\S1\COSC1187 - INTERACTIVE 3D GRAPHICS AND ANIMATION\ASSIGNMENTS\EXAMPLE\EXAMPLE\DEBUG\VC141.PDB
^C:\USERS\RADAR\ONEDRIVE\UNIVERSITY\Y2\S1\COSC1187 - INTERACTIVE 3D GRAPHICS AND ANIMATION\ASSIGNMENTS\EXAMPLE\EXAMPLE\SOURCES\RIVER.C
C:\USERS\RADAR\ONEDRIVE\UNIVERSITY\Y2\S1\COSC1187 - INTERACTIVE 3D GRAPHICS AND ANIMATION\ASSIGNMENTS\EXAMPLE\EXAMPLE\DEBUG\VC141.PDB
^C:\USERS\RADAR\ONEDRIVE\UNIVERSITY\Y2\S1\COSC1187 - INTERACTIVE 3D GRAPHICS AND ANIMATION\ASSIGNMENTS\EXAMPLE\EXAMPLE\SOURCES\ROAD.C
C:\USERS\RADAR\ONEDRIVE\UNIVERSITY\Y2\S1\COSC1187 - INTERACTIVE 3D GRAPHICS AND ANIMATION\ASSIGNMENTS\EXAMPLE\EXAMPLE\DEBUG\VC141.PDB
^C:\USERS\RADAR\ONEDRIVE\UNIVERSITY\Y2\S1\COSC1187 - INTERACTIVE 3D GRAPHICS AND ANIMATION\ASSIGNMENTS\EXAMPLE\EXAMPLE\SOURCES\TERRAIN.C
C:\USERS\RADAR\ONEDRIVE\UNIVERSITY\Y2\S1\COSC1187 - INTERACTIVE 3D GRAPHICS AND ANIMATION\ASSIGNMENTS\EXAMPLE\EXAMPLE\DEBUG\VC141.PDB
^C:\USERS\RADAR\ONEDRIVE\UNIVERSITY\Y2\S1\COSC1187 - INTERACTIVE 3D GRAPHICS AND ANIMATION\ASSIGNMENTS\EXAMPLE\EXAMPLE\SOURCES\UTILS.C
C:\USERS\RADAR\ONEDRIVE\UNIVERSITY\Y2\S1\COSC1187 - INTERACTIVE 3D GRAPHICS AND ANIMATION\ASSIGNMENTS\EXAMPLE\EXAMPLE\DEBUG\VC141.PDB
